<?xml version="1.0" encoding="utf-8"?>
<!DOCTYPE eagle SYSTEM "eagle.dtd">
<eagle version="9.6.2">
<drawing>
<settings>
<setting alwaysvectorfont="no"/>
<setting keepoldvectorfont="yes"/>
<setting verticaltext="up"/>
</settings>
<grid distance="19.6850394" unitdist="mil" unit="mil" style="lines" multiple="1" display="yes" altdistance="0.0025" altunitdist="mm" altunit="mm"/>
<layers>
<layer number="1" name="Top" color="4" fill="1" visible="yes" active="yes"/>
<layer number="2" name="Route2" color="1" fill="3" visible="no" active="no"/>
<layer number="3" name="Route3" color="4" fill="3" visible="no" active="no"/>
<layer number="4" name="Route4" color="1" fill="4" visible="no" active="no"/>
<layer number="5" name="Route5" color="4" fill="4" visible="no" active="no"/>
<layer number="6" name="Route6" color="1" fill="8" visible="no" active="no"/>
<layer number="7" name="Route7" color="4" fill="8" visible="no" active="no"/>
<layer number="8" name="Route8" color="1" fill="2" visible="no" active="no"/>
<layer number="9" name="Route9" color="4" fill="2" visible="no" active="no"/>
<layer number="10" name="Route10" color="1" fill="7" visible="no" active="no"/>
<layer number="11" name="Route11" color="4" fill="7" visible="no" active="no"/>
<layer number="12" name="Route12" color="1" fill="5" visible="no" active="no"/>
<layer number="13" name="Route13" color="4" fill="5" visible="no" active="no"/>
<layer number="14" name="Route14" color="1" fill="6" visible="no" active="no"/>
<layer number="15" name="Route15" color="4" fill="6" visible="no" active="no"/>
<layer number="16" name="Bottom" color="1" fill="1" visible="yes" active="yes"/>
<layer number="17" name="Pads" color="2" fill="1" visible="yes" active="yes"/>
<layer number="18" name="Vias" color="2" fill="1" visible="yes" active="yes"/>
<layer number="19" name="Unrouted" color="6" fill="1" visible="yes" active="yes"/>
<layer number="20" name="Dimension" color="15" fill="1" visible="yes" active="yes"/>
<layer number="21" name="tPlace" color="7" fill="1" visible="yes" active="yes"/>
<layer number="22" name="bPlace" color="7" fill="1" visible="yes" active="yes"/>
<layer number="23" name="tOrigins" color="15" fill="1" visible="yes" active="yes"/>
<layer number="24" name="bOrigins" color="15" fill="1" visible="yes" active="yes"/>
<layer number="25" name="tNames" color="7" fill="1" visible="yes" active="yes"/>
<layer number="26" name="bNames" color="7" fill="1" visible="yes" active="yes"/>
<layer number="27" name="tValues" color="7" fill="1" visible="no" active="yes"/>
<layer number="28" name="bValues" color="7" fill="1" visible="no" active="yes"/>
<layer number="29" name="tStop" color="7" fill="3" visible="yes" active="yes"/>
<layer number="30" name="bStop" color="7" fill="6" visible="yes" active="yes"/>
<layer number="31" name="tCream" color="7" fill="4" visible="yes" active="yes"/>
<layer number="32" name="bCream" color="7" fill="5" visible="yes" active="yes"/>
<layer number="33" name="tFinish" color="6" fill="3" visible="yes" active="yes"/>
<layer number="34" name="bFinish" color="6" fill="6" visible="yes" active="yes"/>
<layer number="35" name="tGlue" color="7" fill="4" visible="yes" active="yes"/>
<layer number="36" name="bGlue" color="7" fill="5" visible="yes" active="yes"/>
<layer number="37" name="tTest" color="7" fill="1" visible="yes" active="yes"/>
<layer number="38" name="bTest" color="7" fill="1" visible="yes" active="yes"/>
<layer number="39" name="tKeepout" color="4" fill="11" visible="yes" active="yes"/>
<layer number="40" name="bKeepout" color="1" fill="11" visible="yes" active="yes"/>
<layer number="41" name="tRestrict" color="4" fill="10" visible="yes" active="yes"/>
<layer number="42" name="bRestrict" color="1" fill="10" visible="yes" active="yes"/>
<layer number="43" name="vRestrict" color="2" fill="10" visible="yes" active="yes"/>
<layer number="44" name="Drills" color="7" fill="1" visible="yes" active="yes"/>
<layer number="45" name="Holes" color="7" fill="1" visible="yes" active="yes"/>
<layer number="46" name="Milling" color="3" fill="1" visible="yes" active="yes"/>
<layer number="47" name="Measures" color="7" fill="1" visible="yes" active="yes"/>
<layer number="48" name="Document" color="7" fill="1" visible="yes" active="yes"/>
<layer number="49" name="Reference" color="7" fill="1" visible="yes" active="yes"/>
<layer number="50" name="dxf" color="7" fill="1" visible="no" active="no"/>
<layer number="51" name="tDocu" color="7" fill="1" visible="yes" active="yes"/>
<layer number="52" name="bDocu" color="7" fill="1" visible="yes" active="yes"/>
<layer number="53" name="tGND_GNDA" color="7" fill="9" visible="no" active="no"/>
<layer number="54" name="bGND_GNDA" color="1" fill="9" visible="no" active="no"/>
<layer number="56" name="wert" color="7" fill="1" visible="no" active="no"/>
<layer number="57" name="tCAD" color="7" fill="1" visible="no" active="no"/>
<layer number="59" name="tCarbon" color="7" fill="1" visible="no" active="no"/>
<layer number="60" name="bCarbon" color="7" fill="1" visible="no" active="no"/>
<layer number="88" name="SimResults" color="9" fill="1" visible="no" active="no"/>
<layer number="89" name="SimProbes" color="9" fill="1" visible="no" active="no"/>
<layer number="90" name="Modules" color="7" fill="1" visible="no" active="no"/>
<layer number="91" name="Nets" color="2" fill="1" visible="no" active="no"/>
<layer number="92" name="Busses" color="1" fill="1" visible="no" active="no"/>
<layer number="93" name="Pins" color="2" fill="1" visible="no" active="no"/>
<layer number="94" name="Symbols" color="4" fill="1" visible="no" active="no"/>
<layer number="95" name="Names" color="7" fill="1" visible="no" active="no"/>
<layer number="96" name="Values" color="7" fill="1" visible="no" active="no"/>
<layer number="97" name="Info" color="7" fill="1" visible="no" active="no"/>
<layer number="98" name="Guide" color="6" fill="1" visible="no" active="no"/>
<layer number="99" name="SpiceOrder" color="7" fill="1" visible="no" active="no"/>
<layer number="100" name="Muster" color="7" fill="1" visible="no" active="no"/>
<layer number="101" name="Patch_Top" color="12" fill="4" visible="yes" active="yes"/>
<layer number="102" name="Vscore" color="7" fill="1" visible="yes" active="yes"/>
<layer number="103" name="tMap" color="7" fill="1" visible="yes" active="yes"/>
<layer number="104" name="Name" color="7" fill="1" visible="yes" active="yes"/>
<layer number="105" name="tPlate" color="7" fill="1" visible="yes" active="yes"/>
<layer number="106" name="bPlate" color="7" fill="1" visible="yes" active="yes"/>
<layer number="107" name="Crop" color="7" fill="1" visible="yes" active="yes"/>
<layer number="108" name="tplace-old" color="10" fill="1" visible="yes" active="yes"/>
<layer number="109" name="ref-old" color="11" fill="1" visible="yes" active="yes"/>
<layer number="110" name="fp0" color="7" fill="1" visible="yes" active="yes"/>
<layer number="111" name="LPC17xx" color="7" fill="1" visible="yes" active="yes"/>
<layer number="112" name="tSilk" color="7" fill="1" visible="yes" active="yes"/>
<layer number="113" name="IDFDebug" color="4" fill="1" visible="yes" active="yes"/>
<layer number="114" name="Badge_Outline" color="7" fill="1" visible="yes" active="yes"/>
<layer number="115" name="ReferenceISLANDS" color="7" fill="1" visible="yes" active="yes"/>
<layer number="116" name="Patch_BOT" color="9" fill="4" visible="yes" active="yes"/>
<layer number="118" name="RECTANGLE_PADS" color="4" fill="1" visible="yes" active="yes"/>
<layer number="121" name="_tsilk" color="7" fill="1" visible="yes" active="yes"/>
<layer number="122" name="_bsilk" color="7" fill="1" visible="yes" active="yes"/>
<layer number="123" name="tTestmark" color="7" fill="1" visible="yes" active="yes"/>
<layer number="124" name="bTestmark" color="7" fill="1" visible="yes" active="yes"/>
<layer number="125" name="_tNames" color="14" fill="1" visible="yes" active="yes"/>
<layer number="126" name="_bNames" color="7" fill="1" visible="yes" active="yes"/>
<layer number="127" name="_tValues" color="7" fill="1" visible="yes" active="yes"/>
<layer number="128" name="_bValues" color="7" fill="1" visible="yes" active="yes"/>
<layer number="129" name="Mask" color="7" fill="1" visible="yes" active="yes"/>
<layer number="131" name="tAdjust" color="7" fill="1" visible="yes" active="yes"/>
<layer number="132" name="bAdjust" color="7" fill="1" visible="yes" active="yes"/>
<layer number="144" name="Drill_legend" color="7" fill="1" visible="yes" active="yes"/>
<layer number="146" name="externalDimension" color="7" fill="1" visible="yes" active="yes"/>
<layer number="148" name="vcut" color="7" fill="1" visible="yes" active="yes"/>
<layer number="149" name="breakRouting" color="7" fill="1" visible="yes" active="yes"/>
<layer number="150" name="Notes" color="7" fill="1" visible="yes" active="yes"/>
<layer number="151" name="HeatSink" color="7" fill="1" visible="yes" active="yes"/>
<layer number="152" name="_bDocu" color="7" fill="1" visible="yes" active="yes"/>
<layer number="153" name="FabDoc1" color="6" fill="1" visible="no" active="no"/>
<layer number="154" name="FabDoc2" color="2" fill="1" visible="no" active="no"/>
<layer number="155" name="FabDoc3" color="7" fill="15" visible="no" active="no"/>
<layer number="180" name="vCut" color="14" fill="1" visible="yes" active="yes"/>
<layer number="181" name="Dim" color="13" fill="1" visible="yes" active="yes"/>
<layer number="199" name="Contour" color="7" fill="1" visible="yes" active="yes"/>
<layer number="200" name="200bmp" color="1" fill="10" visible="no" active="no"/>
<layer number="201" name="201bmp" color="2" fill="1" visible="no" active="no"/>
<layer number="202" name="202bmp" color="3" fill="1" visible="no" active="no"/>
<layer number="203" name="203bmp" color="4" fill="10" visible="yes" active="yes"/>
<layer number="204" name="204bmp" color="5" fill="10" visible="yes" active="yes"/>
<layer number="205" name="205bmp" color="6" fill="10" visible="yes" active="yes"/>
<layer number="206" name="206bmp" color="7" fill="10" visible="yes" active="yes"/>
<layer number="207" name="207bmp" color="8" fill="10" visible="yes" active="yes"/>
<layer number="208" name="208bmp" color="9" fill="10" visible="yes" active="yes"/>
<layer number="209" name="209bmp" color="7" fill="1" visible="yes" active="yes"/>
<layer number="210" name="210bmp" color="7" fill="1" visible="yes" active="yes"/>
<layer number="211" name="211bmp" color="7" fill="1" visible="yes" active="yes"/>
<layer number="212" name="212bmp" color="7" fill="1" visible="yes" active="yes"/>
<layer number="213" name="213bmp" color="7" fill="1" visible="yes" active="yes"/>
<layer number="214" name="214bmp" color="7" fill="1" visible="yes" active="yes"/>
<layer number="215" name="215bmp" color="7" fill="1" visible="yes" active="yes"/>
<layer number="216" name="216bmp" color="7" fill="1" visible="yes" active="yes"/>
<layer number="217" name="217bmp" color="18" fill="1" visible="no" active="no"/>
<layer number="218" name="218bmp" color="19" fill="1" visible="no" active="no"/>
<layer number="219" name="219bmp" color="20" fill="1" visible="no" active="no"/>
<layer number="220" name="220bmp" color="21" fill="1" visible="no" active="no"/>
<layer number="221" name="221bmp" color="22" fill="1" visible="no" active="no"/>
<layer number="222" name="222bmp" color="23" fill="1" visible="no" active="no"/>
<layer number="223" name="223bmp" color="24" fill="1" visible="no" active="no"/>
<layer number="224" name="224bmp" color="25" fill="1" visible="no" active="no"/>
<layer number="225" name="225bmp" color="7" fill="1" visible="yes" active="yes"/>
<layer number="226" name="226bmp" color="7" fill="1" visible="yes" active="yes"/>
<layer number="227" name="227bmp" color="7" fill="1" visible="yes" active="yes"/>
<layer number="228" name="228bmp" color="7" fill="1" visible="yes" active="yes"/>
<layer number="229" name="229bmp" color="7" fill="1" visible="yes" active="yes"/>
<layer number="230" name="230bmp" color="7" fill="1" visible="yes" active="yes"/>
<layer number="231" name="Eagle3D_PG1" color="7" fill="1" visible="no" active="no"/>
<layer number="232" name="Eagle3D_PG2" color="7" fill="1" visible="no" active="no"/>
<layer number="233" name="Eagle3D_PG3" color="7" fill="1" visible="no" active="no"/>
<layer number="248" name="Housing" color="7" fill="1" visible="yes" active="yes"/>
<layer number="249" name="Edge" color="7" fill="1" visible="yes" active="yes"/>
<layer number="250" name="Descript" color="3" fill="1" visible="no" active="no"/>
<layer number="251" name="SMDround" color="12" fill="11" visible="no" active="no"/>
<layer number="254" name="cooling" color="7" fill="1" visible="yes" active="yes"/>
<layer number="255" name="routoute" color="7" fill="1" visible="yes" active="yes"/>
</layers>
<board>
<plain>
<text x="0" y="-12.5824" size="1.778" layer="21" font="vector">Licensed under the TAPR Open 
Hardware License (www.tapr.org/OHL)

Copyright 2021 Hardware Platform</text>
<wire x1="32.763934375" y1="0" x2="2.736065625" y2="0" width="0" layer="20"/>
<wire x1="2.736065625" y1="0" x2="0" y2="2.236065625" width="0" layer="20" curve="-90"/>
<wire x1="0" y1="2.236065625" x2="0" y2="42.763934375" width="0" layer="20"/>
<wire x1="0" y1="42.763934375" x2="2.329665625" y2="45" width="0" layer="20" curve="-90"/>
<wire x1="35" y1="2.236065625" x2="35" y2="42.763934375" width="0" layer="20"/>
<wire x1="35" y1="42.763934375" x2="32.763934375" y2="45" width="0" layer="20" curve="90"/>
<wire x1="32.763934375" y1="45" x2="2.329665625" y2="45" width="0" layer="20"/>
<wire x1="32.763934375" y1="0" x2="35" y2="2.236065625" width="0" layer="20" curve="90"/>
<text x="30.3328" y="3.349" size="1.016" layer="21" font="vector" ratio="15" align="center">behavior
encoder
v1.2</text>
<hole x="5" y="10" drill="3.2"/>
<text x="17.5289" y="5.07951875" size="1.016" layer="22" font="vector" ratio="15" rot="MR180" align="bottom-center">Licensed under the TAPR
Open Hardware
(www.tapr.org/OHL)</text>
<hole x="30" y="10" drill="3.2"/>
<hole x="5" y="35" drill="3.2"/>
<hole x="30" y="35" drill="3.2"/>
<text x="25.9441" y="38.0155" size="1.016" layer="21" font="vector" ratio="15" rot="R90">ENCODER</text>
<text x="17.5289" y="20.57351875" size="1.27" layer="22" font="vector" ratio="15" rot="MR180" align="bottom-center">For Research Use Only</text>
<circle x="5" y="35" radius="3.68744375" width="0" layer="41"/>
<circle x="5.0061" y="35.0037" radius="3.68744375" width="0" layer="42"/>
<circle x="30" y="34.9996" radius="3.68744375" width="0" layer="41"/>
<circle x="30.0061" y="35.0033" radius="3.68744375" width="0" layer="42"/>
<circle x="4.9975" y="10.0011" radius="3.68744375" width="0" layer="41"/>
<circle x="5.0036" y="10.0048" radius="3.68744375" width="0" layer="42"/>
<circle x="29.9982" y="10.0021" radius="3.68744375" width="0" layer="41"/>
<circle x="30.0043" y="10.0058" radius="3.68744375" width="0" layer="42"/>
<text x="17.12" y="20.4075" size="0.8128" layer="21" font="vector" ratio="15">+</text>
<text x="28.828" y="23.5564" size="1.016" layer="21" font="vector" ratio="15" rot="R180" align="center">www.cf-hw.org</text>
</plain>
<libraries>
<library name="con-amp">
<description>&lt;b&gt;AMP Connectors&lt;/b&gt;&lt;p&gt;
RJ45 Jack connectors&lt;br&gt;
 Based on the previous libraris:
 &lt;ul&gt;
 &lt;li&gt;amp.lbr
 &lt;li&gt;amp-j.lbr
 &lt;li&gt;amp-mta.lbr
 &lt;li&gt;amp-nlok.lbr
 &lt;li&gt;amp-sim.lbr
 &lt;li&gt;amp-micro-match.lbr
 &lt;/ul&gt;
 Sources :
 &lt;ul&gt;
 &lt;li&gt;Catalog 82066 Revised 11-95 
 &lt;li&gt;Product Guide 296785 Rev. 8-99
 &lt;li&gt;Product Guide CD-ROM 1999
 &lt;li&gt;www.amp.com
 &lt;/ul&gt;
 &lt;author&gt;Created by librarian@cadsoft.de&lt;/author&gt;</description>
<packages>
<package name="520426-4">
<description>&lt;b&gt;Modular Jack&lt;/b&gt;&lt;p&gt;without Panel Stops</description>
<wire x1="7.578" y1="11.044" x2="7.578" y2="-9.538" width="0.2032" layer="21"/>
<wire x1="-7.578" y1="-9.538" x2="-7.578" y2="11.044" width="0.2032" layer="21"/>
<wire x1="-7.578" y1="11.044" x2="-4.699" y2="11.049" width="0.2032" layer="21"/>
<wire x1="-4.191" y1="11.044" x2="-3.429" y2="11.044" width="0.2032" layer="21"/>
<wire x1="-2.921" y1="11.049" x2="-2.159" y2="11.049" width="0.2032" layer="21"/>
<wire x1="-1.651" y1="11.049" x2="-0.889" y2="11.049" width="0.2032" layer="21"/>
<wire x1="-0.381" y1="11.049" x2="0.381" y2="11.049" width="0.2032" layer="21"/>
<wire x1="0.889" y1="11.044" x2="1.651" y2="11.0439" width="0.2032" layer="21"/>
<wire x1="2.159" y1="11.049" x2="2.921" y2="11.049" width="0.2032" layer="21"/>
<wire x1="3.429" y1="11.049" x2="4.191" y2="11.0491" width="0.2032" layer="21"/>
<wire x1="4.699" y1="11.0439" x2="7.578" y2="11.044" width="0.2032" layer="21"/>
<wire x1="-3.429" y1="9.779" x2="-2.921" y2="9.779" width="0.2032" layer="21"/>
<wire x1="-2.159" y1="7.239" x2="-1.651" y2="7.239" width="0.2032" layer="21"/>
<wire x1="-0.889" y1="9.779" x2="-0.381" y2="9.779" width="0.2032" layer="21"/>
<wire x1="-3.429" y1="11.049" x2="-3.429" y2="11.044" width="0.2032" layer="21"/>
<wire x1="-3.429" y1="11.044" x2="-3.429" y2="9.779" width="0.2032" layer="21"/>
<wire x1="-2.159" y1="11.049" x2="-2.159" y2="7.239" width="0.2032" layer="21"/>
<wire x1="-2.921" y1="11.049" x2="-2.921" y2="9.779" width="0.2032" layer="21"/>
<wire x1="-0.889" y1="11.049" x2="-0.889" y2="9.779" width="0.2032" layer="21"/>
<wire x1="-1.651" y1="11.049" x2="-1.651" y2="7.239" width="0.2032" layer="21"/>
<wire x1="0.381" y1="11.049" x2="0.381" y2="7.239" width="0.2032" layer="21"/>
<wire x1="-0.381" y1="11.049" x2="-0.381" y2="9.779" width="0.2032" layer="21"/>
<wire x1="0.381" y1="7.239" x2="0.889" y2="7.239" width="0.2032" layer="21"/>
<wire x1="7.5565" y1="-6.9215" x2="-7.5565" y2="-6.9215" width="0.0508" layer="21"/>
<wire x1="0.889" y1="11.049" x2="0.889" y2="11.044" width="0.2032" layer="21"/>
<wire x1="0.889" y1="11.044" x2="0.889" y2="7.239" width="0.2032" layer="21"/>
<wire x1="7.493" y1="-9.652" x2="-7.493" y2="-9.652" width="0.2032" layer="21"/>
<wire x1="-4.699" y1="7.239" x2="-4.191" y2="7.239" width="0.2032" layer="21"/>
<wire x1="-4.699" y1="11.049" x2="-4.699" y2="7.239" width="0.2032" layer="21"/>
<wire x1="-4.191" y1="11.049" x2="-4.191" y2="11.044" width="0.2032" layer="21"/>
<wire x1="-4.191" y1="11.044" x2="-4.191" y2="7.239" width="0.2032" layer="21"/>
<wire x1="1.651" y1="9.779" x2="2.159" y2="9.779" width="0.2032" layer="21"/>
<wire x1="1.651" y1="11.0491" x2="1.651" y2="9.779" width="0.2032" layer="21"/>
<wire x1="2.159" y1="11.049" x2="2.159" y2="9.779" width="0.2032" layer="21"/>
<wire x1="3.429" y1="11.044" x2="4.191" y2="11.0439" width="0.2032" layer="21"/>
<wire x1="2.921" y1="11.049" x2="2.921" y2="7.239" width="0.2032" layer="21"/>
<wire x1="2.921" y1="7.239" x2="3.429" y2="7.239" width="0.2032" layer="21"/>
<wire x1="3.429" y1="11.044" x2="3.429" y2="7.239" width="0.2032" layer="21"/>
<wire x1="4.191" y1="9.779" x2="4.699" y2="9.779" width="0.2032" layer="21"/>
<wire x1="4.191" y1="11.0491" x2="4.191" y2="9.779" width="0.2032" layer="21"/>
<wire x1="4.699" y1="11.0491" x2="4.699" y2="11.0439" width="0.2032" layer="21"/>
<wire x1="4.699" y1="11.0439" x2="4.699" y2="9.779" width="0.2032" layer="21"/>
<pad name="4" x="-0.635" y="8.89" drill="0.889"/>
<pad name="3" x="-1.905" y="6.35" drill="0.889"/>
<pad name="2" x="-3.175" y="8.89" drill="0.889"/>
<pad name="1" x="-4.445" y="6.35" drill="0.889"/>
<pad name="5" x="0.635" y="6.35" drill="0.889"/>
<pad name="6" x="1.905" y="8.89" drill="0.889"/>
<pad name="7" x="3.175" y="6.35" drill="0.889"/>
<pad name="8" x="4.445" y="8.89" drill="0.889"/>
<text x="-8.382" y="-4.191" size="1.778" layer="25" rot="R90">&gt;NAME</text>
<text x="9.652" y="-4.826" size="1.778" layer="27" rot="R90">&gt;VALUE</text>
<hole x="-5.715" y="0" drill="3.2512"/>
<hole x="5.715" y="0" drill="3.2512"/>
</package>
</packages>
</library>
<library name="rcl">
<packages>
<package name="A/3216-18W">
<description>&lt;b&gt;Chip Capacitor Type KEMET A / EIA 3216-18 Wave solder&lt;/b&gt;&lt;p&gt;
KEMET S / EIA 3216-12</description>
<wire x1="-1.45" y1="0.6" x2="1.45" y2="0.6" width="0.1016" layer="51"/>
<wire x1="1.45" y1="0.6" x2="1.45" y2="-0.6" width="0.1016" layer="51"/>
<wire x1="1.45" y1="-0.6" x2="-1.45" y2="-0.6" width="0.1016" layer="51"/>
<wire x1="-1.45" y1="-0.6" x2="-1.45" y2="0.6" width="0.1016" layer="51"/>
<smd name="+" x="1.475" y="0" dx="2.15" dy="1.8" layer="1"/>
<smd name="-" x="-1.475" y="0" dx="2.15" dy="1.8" layer="1"/>
<text x="-1.95" y="1" size="1.27" layer="25">&gt;NAME</text>
<text x="-1.95" y="-2.325" size="1.27" layer="27">&gt;VALUE</text>
<rectangle x1="-1.6" y1="-0.6" x2="-1.475" y2="0.6" layer="51"/>
<rectangle x1="1.475" y1="-0.6" x2="1.6" y2="0.6" layer="51"/>
<rectangle x1="0.8" y1="-0.625" x2="1.1" y2="0.625" layer="51"/>
</package>
<package name="R0402">
<description>&lt;b&gt;RESISTOR&lt;/b&gt;</description>
<wire x1="-0.245" y1="0.224" x2="0.245" y2="0.224" width="0.1524" layer="51"/>
<wire x1="0.245" y1="-0.224" x2="-0.245" y2="-0.224" width="0.1524" layer="51"/>
<wire x1="-1.473" y1="0.483" x2="1.473" y2="0.483" width="0.0508" layer="39"/>
<wire x1="1.473" y1="0.483" x2="1.473" y2="-0.483" width="0.0508" layer="39"/>
<wire x1="1.473" y1="-0.483" x2="-1.473" y2="-0.483" width="0.0508" layer="39"/>
<wire x1="-1.473" y1="-0.483" x2="-1.473" y2="0.483" width="0.0508" layer="39"/>
<smd name="1" x="-0.65" y="0" dx="0.7" dy="0.9" layer="1"/>
<smd name="2" x="0.65" y="0" dx="0.7" dy="0.9" layer="1"/>
<text x="-0.635" y="0.635" size="1.27" layer="25">&gt;NAME</text>
<text x="-0.635" y="-1.905" size="1.27" layer="27">&gt;VALUE</text>
<rectangle x1="-0.554" y1="-0.3048" x2="-0.254" y2="0.2951" layer="51"/>
<rectangle x1="0.2588" y1="-0.3048" x2="0.5588" y2="0.2951" layer="51"/>
<rectangle x1="-0.1999" y1="-0.4001" x2="0.1999" y2="0.4001" layer="35"/>
</package>
<package name="C0402">
<description>&lt;b&gt;CAPACITOR&lt;/b&gt;</description>
<wire x1="-0.245" y1="0.224" x2="0.245" y2="0.224" width="0.1524" layer="51"/>
<wire x1="0.245" y1="-0.224" x2="-0.245" y2="-0.224" width="0.1524" layer="51"/>
<wire x1="-1.473" y1="0.483" x2="1.473" y2="0.483" width="0.0508" layer="39"/>
<wire x1="1.473" y1="0.483" x2="1.473" y2="-0.483" width="0.0508" layer="39"/>
<wire x1="1.473" y1="-0.483" x2="-1.473" y2="-0.483" width="0.0508" layer="39"/>
<wire x1="-1.473" y1="-0.483" x2="-1.473" y2="0.483" width="0.0508" layer="39"/>
<smd name="1" x="-0.65" y="0" dx="0.7" dy="0.9" layer="1"/>
<smd name="2" x="0.65" y="0" dx="0.7" dy="0.9" layer="1"/>
<text x="-0.635" y="0.635" size="1.27" layer="25">&gt;NAME</text>
<text x="-0.635" y="-1.905" size="1.27" layer="27">&gt;VALUE</text>
<rectangle x1="-0.554" y1="-0.3048" x2="-0.254" y2="0.2951" layer="51"/>
<rectangle x1="0.2588" y1="-0.3048" x2="0.5588" y2="0.2951" layer="51"/>
<rectangle x1="-0.1999" y1="-0.3" x2="0.1999" y2="0.3" layer="35"/>
</package>
</packages>
</library>
<library name="testpad">
<description>&lt;b&gt;Test Pins/Pads&lt;/b&gt;&lt;p&gt;
Cream on SMD OFF.&lt;br&gt;
new: Attribute TP_SIGNAL_NAME&lt;br&gt;
&lt;author&gt;Created by librarian@cadsoft.de&lt;/author&gt;</description>
<packages>
<package name="P1-13">
<description>&lt;b&gt;TEST PAD&lt;/b&gt;</description>
<circle x="0" y="0" radius="0.762" width="0.1524" layer="51"/>
<pad name="TP" x="0" y="0" drill="1.3208" diameter="2.159" shape="octagon"/>
<text x="-1.016" y="1.27" size="1.27" layer="25" ratio="10">&gt;NAME</text>
<text x="0" y="0" size="0.0254" layer="27">&gt;VALUE</text>
<text x="-1.27" y="-2.54" size="1" layer="37">&gt;TP_SIGNAL_NAME</text>
<rectangle x1="-0.3302" y1="-0.3302" x2="0.3302" y2="0.3302" layer="51"/>
</package>
</packages>
</library>
<library name="CNP-miscellaneous">
<packages>
<package name="ENCODER_EC12">
<wire x1="-6.2" y1="0" x2="6.2" y2="0" width="0.2032" layer="21"/>
<wire x1="-6.2" y1="0" x2="-6.2" y2="4.57" width="0.2032" layer="21"/>
<wire x1="6.2" y1="0" x2="6.2" y2="13.2" width="0.2032" layer="21"/>
<pad name="A" x="-2.5" y="0" drill="1"/>
<pad name="C" x="0" y="0" drill="1"/>
<pad name="B" x="2.5" y="0" drill="1"/>
<text x="-1.905" y="6.205" size="0.8128" layer="25">&gt;NAME</text>
<text x="-2.16" y="3.93" size="0.8128" layer="27">&gt;VALUE</text>
<wire x1="-6.2" y1="13.2" x2="6.2" y2="13.2" width="0.2032" layer="21"/>
<wire x1="-6.2" y1="13.2" x2="-6.2" y2="4.315" width="0.2032" layer="21"/>
<pad name="A1" x="-5.6" y="7.5" drill="2.1"/>
<pad name="A2" x="5.6" y="7.5" drill="2.1"/>
</package>
<package name="LOGO_7">
<rectangle x1="0.6477" y1="-2.4257" x2="1.2827" y2="-2.4003" layer="21"/>
<rectangle x1="0.6223" y1="-2.4257" x2="0.6477" y2="-2.4003" layer="21"/>
<rectangle x1="1.2827" y1="-2.4257" x2="1.3081" y2="-2.4003" layer="21"/>
<rectangle x1="0.6477" y1="-2.4003" x2="1.2827" y2="-2.3749" layer="21"/>
<rectangle x1="1.2827" y1="-2.4003" x2="1.3081" y2="-2.3749" layer="21"/>
<rectangle x1="0.6223" y1="-2.4003" x2="0.6477" y2="-2.3749" layer="21"/>
<rectangle x1="0.6477" y1="-2.3749" x2="1.2827" y2="-2.3495" layer="21"/>
<rectangle x1="1.2827" y1="-2.3749" x2="1.3081" y2="-2.3495" layer="21"/>
<rectangle x1="0.6223" y1="-2.3749" x2="0.6477" y2="-2.3495" layer="21"/>
<rectangle x1="0.6477" y1="-2.3495" x2="1.2827" y2="-2.3241" layer="21"/>
<rectangle x1="1.2827" y1="-2.3495" x2="1.3081" y2="-2.3241" layer="21"/>
<rectangle x1="0.6223" y1="-2.3495" x2="0.6477" y2="-2.3241" layer="21"/>
<rectangle x1="0.6477" y1="-2.3241" x2="1.2827" y2="-2.2987" layer="21"/>
<rectangle x1="1.2827" y1="-2.3241" x2="1.3081" y2="-2.2987" layer="21"/>
<rectangle x1="0.6223" y1="-2.3241" x2="0.6477" y2="-2.2987" layer="21"/>
<rectangle x1="0.6477" y1="-2.2987" x2="1.2827" y2="-2.2733" layer="21"/>
<rectangle x1="1.2827" y1="-2.2987" x2="1.3081" y2="-2.2733" layer="21"/>
<rectangle x1="0.6223" y1="-2.2987" x2="0.6477" y2="-2.2733" layer="21"/>
<rectangle x1="0.6477" y1="-2.2733" x2="1.2827" y2="-2.2479" layer="21"/>
<rectangle x1="1.2827" y1="-2.2733" x2="1.3081" y2="-2.2479" layer="21"/>
<rectangle x1="0.6223" y1="-2.2733" x2="0.6477" y2="-2.2479" layer="21"/>
<rectangle x1="0.6477" y1="-2.2479" x2="1.2827" y2="-2.2225" layer="21"/>
<rectangle x1="1.2827" y1="-2.2479" x2="1.3081" y2="-2.2225" layer="21"/>
<rectangle x1="0.6223" y1="-2.2479" x2="0.6477" y2="-2.2225" layer="21"/>
<rectangle x1="0.6477" y1="-2.2225" x2="1.2827" y2="-2.1971" layer="21"/>
<rectangle x1="1.2827" y1="-2.2225" x2="1.3081" y2="-2.1971" layer="21"/>
<rectangle x1="0.6223" y1="-2.2225" x2="0.6477" y2="-2.1971" layer="21"/>
<rectangle x1="0.6477" y1="-2.1971" x2="1.2827" y2="-2.1717" layer="21"/>
<rectangle x1="1.2827" y1="-2.1971" x2="1.3081" y2="-2.1717" layer="21"/>
<rectangle x1="0.6223" y1="-2.1971" x2="0.6477" y2="-2.1717" layer="21"/>
<rectangle x1="0.6477" y1="-2.1717" x2="1.2827" y2="-2.1463" layer="21"/>
<rectangle x1="1.2827" y1="-2.1717" x2="1.3081" y2="-2.1463" layer="21"/>
<rectangle x1="0.6223" y1="-2.1717" x2="0.6477" y2="-2.1463" layer="21"/>
<rectangle x1="0.6477" y1="-2.1463" x2="1.2827" y2="-2.1209" layer="21"/>
<rectangle x1="1.2827" y1="-2.1463" x2="1.3081" y2="-2.1209" layer="21"/>
<rectangle x1="0.6223" y1="-2.1463" x2="0.6477" y2="-2.1209" layer="21"/>
<rectangle x1="0.6477" y1="-2.1209" x2="1.2827" y2="-2.0955" layer="21"/>
<rectangle x1="1.2827" y1="-2.1209" x2="1.3081" y2="-2.0955" layer="21"/>
<rectangle x1="0.6223" y1="-2.1209" x2="0.6477" y2="-2.0955" layer="21"/>
<rectangle x1="0.6477" y1="-2.0955" x2="1.2827" y2="-2.0701" layer="21"/>
<rectangle x1="1.2827" y1="-2.0955" x2="1.3081" y2="-2.0701" layer="21"/>
<rectangle x1="0.6223" y1="-2.0955" x2="0.6477" y2="-2.0701" layer="21"/>
<rectangle x1="0.6477" y1="-2.0701" x2="1.2827" y2="-2.0447" layer="21"/>
<rectangle x1="1.2827" y1="-2.0701" x2="1.3081" y2="-2.0447" layer="21"/>
<rectangle x1="0.6223" y1="-2.0701" x2="0.6477" y2="-2.0447" layer="21"/>
<rectangle x1="0.6477" y1="-2.0447" x2="1.2827" y2="-2.0193" layer="21"/>
<rectangle x1="1.2827" y1="-2.0447" x2="1.3081" y2="-2.0193" layer="21"/>
<rectangle x1="0.6223" y1="-2.0447" x2="0.6477" y2="-2.0193" layer="21"/>
<rectangle x1="0.6477" y1="-2.0193" x2="1.2827" y2="-1.9939" layer="21"/>
<rectangle x1="1.2827" y1="-2.0193" x2="1.3081" y2="-1.9939" layer="21"/>
<rectangle x1="0.6223" y1="-2.0193" x2="0.6477" y2="-1.9939" layer="21"/>
<rectangle x1="0.6477" y1="-1.9939" x2="1.2827" y2="-1.9685" layer="21"/>
<rectangle x1="1.2827" y1="-1.9939" x2="1.3081" y2="-1.9685" layer="21"/>
<rectangle x1="0.6223" y1="-1.9939" x2="0.6477" y2="-1.9685" layer="21"/>
<rectangle x1="0.6477" y1="-1.9685" x2="1.2827" y2="-1.9431" layer="21"/>
<rectangle x1="1.2827" y1="-1.9685" x2="1.3081" y2="-1.9431" layer="21"/>
<rectangle x1="0.6223" y1="-1.9685" x2="0.6477" y2="-1.9431" layer="21"/>
<rectangle x1="0.6477" y1="-1.9431" x2="1.2827" y2="-1.9177" layer="21"/>
<rectangle x1="1.2827" y1="-1.9431" x2="1.3081" y2="-1.9177" layer="21"/>
<rectangle x1="0.6223" y1="-1.9431" x2="0.6477" y2="-1.9177" layer="21"/>
<rectangle x1="0.6477" y1="-1.9177" x2="1.2827" y2="-1.8923" layer="21"/>
<rectangle x1="1.2827" y1="-1.9177" x2="1.3081" y2="-1.8923" layer="21"/>
<rectangle x1="0.6223" y1="-1.9177" x2="0.6477" y2="-1.8923" layer="21"/>
<rectangle x1="0.6477" y1="-1.8923" x2="1.2827" y2="-1.8669" layer="21"/>
<rectangle x1="1.2827" y1="-1.8923" x2="1.3081" y2="-1.8669" layer="21"/>
<rectangle x1="0.6223" y1="-1.8923" x2="0.6477" y2="-1.8669" layer="21"/>
<rectangle x1="0.6477" y1="-1.8669" x2="1.2827" y2="-1.8415" layer="21"/>
<rectangle x1="1.2827" y1="-1.8669" x2="1.3081" y2="-1.8415" layer="21"/>
<rectangle x1="0.6223" y1="-1.8669" x2="0.6477" y2="-1.8415" layer="21"/>
<rectangle x1="0.6477" y1="-1.8415" x2="1.2827" y2="-1.8161" layer="21"/>
<rectangle x1="1.2827" y1="-1.8415" x2="1.3081" y2="-1.8161" layer="21"/>
<rectangle x1="0.6223" y1="-1.8415" x2="0.6477" y2="-1.8161" layer="21"/>
<rectangle x1="0.6477" y1="-1.8161" x2="1.2827" y2="-1.7907" layer="21"/>
<rectangle x1="1.2827" y1="-1.8161" x2="1.3081" y2="-1.7907" layer="21"/>
<rectangle x1="0.6223" y1="-1.8161" x2="0.6477" y2="-1.7907" layer="21"/>
<rectangle x1="0.6477" y1="-1.7907" x2="1.2827" y2="-1.7653" layer="21"/>
<rectangle x1="1.2827" y1="-1.7907" x2="1.3081" y2="-1.7653" layer="21"/>
<rectangle x1="0.6223" y1="-1.7907" x2="0.6477" y2="-1.7653" layer="21"/>
<rectangle x1="0.6477" y1="-1.7653" x2="1.2827" y2="-1.7399" layer="21"/>
<rectangle x1="1.2827" y1="-1.7653" x2="1.3081" y2="-1.7399" layer="21"/>
<rectangle x1="0.6223" y1="-1.7653" x2="0.6477" y2="-1.7399" layer="21"/>
<rectangle x1="0.6477" y1="-1.7399" x2="1.2827" y2="-1.7145" layer="21"/>
<rectangle x1="1.2827" y1="-1.7399" x2="1.3081" y2="-1.7145" layer="21"/>
<rectangle x1="0.6223" y1="-1.7399" x2="0.6477" y2="-1.7145" layer="21"/>
<rectangle x1="0.6477" y1="-1.7145" x2="1.2827" y2="-1.6891" layer="21"/>
<rectangle x1="1.2827" y1="-1.7145" x2="1.3081" y2="-1.6891" layer="21"/>
<rectangle x1="0.6223" y1="-1.7145" x2="0.6477" y2="-1.6891" layer="21"/>
<rectangle x1="0.6477" y1="-1.6891" x2="1.3081" y2="-1.6637" layer="21"/>
<rectangle x1="0.6223" y1="-1.6891" x2="0.6477" y2="-1.6637" layer="21"/>
<rectangle x1="0.6477" y1="-1.6637" x2="1.3081" y2="-1.6383" layer="21"/>
<rectangle x1="0.6223" y1="-1.6637" x2="0.6477" y2="-1.6383" layer="21"/>
<rectangle x1="0.6477" y1="-1.6383" x2="1.3081" y2="-1.6129" layer="21"/>
<rectangle x1="0.6223" y1="-1.6383" x2="0.6477" y2="-1.6129" layer="21"/>
<rectangle x1="0.6477" y1="-1.6129" x2="1.3081" y2="-1.5875" layer="21"/>
<rectangle x1="0.6223" y1="-1.6129" x2="0.6477" y2="-1.5875" layer="21"/>
<rectangle x1="1.3081" y1="-1.6129" x2="1.3335" y2="-1.5875" layer="21"/>
<rectangle x1="0.6477" y1="-1.5875" x2="1.3081" y2="-1.5621" layer="21"/>
<rectangle x1="1.3081" y1="-1.5875" x2="1.3335" y2="-1.5621" layer="21"/>
<rectangle x1="0.6223" y1="-1.5875" x2="0.6477" y2="-1.5621" layer="21"/>
<rectangle x1="0.6477" y1="-1.5621" x2="1.3335" y2="-1.5367" layer="21"/>
<rectangle x1="0.6223" y1="-1.5621" x2="0.6477" y2="-1.5367" layer="21"/>
<rectangle x1="0.6477" y1="-1.5367" x2="1.3335" y2="-1.5113" layer="21"/>
<rectangle x1="0.6223" y1="-1.5367" x2="0.6477" y2="-1.5113" layer="21"/>
<rectangle x1="1.3335" y1="-1.5367" x2="1.3589" y2="-1.5113" layer="21"/>
<rectangle x1="0.6477" y1="-1.5113" x2="1.3335" y2="-1.4859" layer="21"/>
<rectangle x1="1.3335" y1="-1.5113" x2="1.3589" y2="-1.4859" layer="21"/>
<rectangle x1="0.6223" y1="-1.5113" x2="0.6477" y2="-1.4859" layer="21"/>
<rectangle x1="0.6477" y1="-1.4859" x2="1.3589" y2="-1.4605" layer="21"/>
<rectangle x1="0.6223" y1="-1.4859" x2="0.6477" y2="-1.4605" layer="21"/>
<rectangle x1="0.6477" y1="-1.4605" x2="1.3589" y2="-1.4351" layer="21"/>
<rectangle x1="1.3589" y1="-1.4605" x2="1.3843" y2="-1.4351" layer="21"/>
<rectangle x1="0.6223" y1="-1.4605" x2="0.6477" y2="-1.4351" layer="21"/>
<rectangle x1="0.6477" y1="-1.4351" x2="1.3843" y2="-1.4097" layer="21"/>
<rectangle x1="0.6223" y1="-1.4351" x2="0.6477" y2="-1.4097" layer="21"/>
<rectangle x1="1.3843" y1="-1.4351" x2="1.4097" y2="-1.4097" layer="21"/>
<rectangle x1="0.6477" y1="-1.4097" x2="1.4097" y2="-1.3843" layer="21"/>
<rectangle x1="0.6223" y1="-1.4097" x2="0.6477" y2="-1.3843" layer="21"/>
<rectangle x1="0.6477" y1="-1.3843" x2="1.4351" y2="-1.3589" layer="21"/>
<rectangle x1="0.6223" y1="-1.3843" x2="0.6477" y2="-1.3589" layer="21"/>
<rectangle x1="0.6477" y1="-1.3589" x2="1.4605" y2="-1.3335" layer="21"/>
<rectangle x1="0.6223" y1="-1.3589" x2="0.6477" y2="-1.3335" layer="21"/>
<rectangle x1="0.6477" y1="-1.3335" x2="1.4859" y2="-1.3081" layer="21"/>
<rectangle x1="0.6223" y1="-1.3335" x2="0.6477" y2="-1.3081" layer="21"/>
<rectangle x1="0.6477" y1="-1.3081" x2="1.5113" y2="-1.2827" layer="21"/>
<rectangle x1="-0.0635" y1="-1.3081" x2="0.1651" y2="-1.2827" layer="21"/>
<rectangle x1="0.6223" y1="-1.3081" x2="0.6477" y2="-1.2827" layer="21"/>
<rectangle x1="1.5113" y1="-1.3081" x2="1.5367" y2="-1.2827" layer="21"/>
<rectangle x1="0.6477" y1="-1.2827" x2="1.5367" y2="-1.2573" layer="21"/>
<rectangle x1="1.5367" y1="-1.2827" x2="1.5621" y2="-1.2573" layer="21"/>
<rectangle x1="-0.2413" y1="-1.2827" x2="-0.1905" y2="-1.2573" layer="21"/>
<rectangle x1="0.2921" y1="-1.2827" x2="0.3429" y2="-1.2573" layer="21"/>
<rectangle x1="0.6223" y1="-1.2827" x2="0.6477" y2="-1.2573" layer="21"/>
<rectangle x1="-0.1905" y1="-1.2827" x2="0.2921" y2="-1.2573" layer="21"/>
<rectangle x1="0.6477" y1="-1.2573" x2="1.5875" y2="-1.2319" layer="21"/>
<rectangle x1="1.5875" y1="-1.2573" x2="1.6129" y2="-1.2319" layer="21"/>
<rectangle x1="-0.3429" y1="-1.2573" x2="-0.2921" y2="-1.2319" layer="21"/>
<rectangle x1="0.3937" y1="-1.2573" x2="0.4191" y2="-1.2319" layer="21"/>
<rectangle x1="0.6223" y1="-1.2573" x2="0.6477" y2="-1.2319" layer="21"/>
<rectangle x1="-0.2921" y1="-1.2573" x2="0.3937" y2="-1.2319" layer="21"/>
<rectangle x1="0.6477" y1="-1.2319" x2="1.6383" y2="-1.2065" layer="21"/>
<rectangle x1="1.6383" y1="-1.2319" x2="1.6637" y2="-1.2065" layer="21"/>
<rectangle x1="-0.3937" y1="-1.2319" x2="-0.3683" y2="-1.2065" layer="21"/>
<rectangle x1="0.4699" y1="-1.2319" x2="0.4953" y2="-1.2065" layer="21"/>
<rectangle x1="0.6223" y1="-1.2319" x2="0.6477" y2="-1.2065" layer="21"/>
<rectangle x1="1.6637" y1="-1.2319" x2="1.6891" y2="-1.2065" layer="21"/>
<rectangle x1="-0.3683" y1="-1.2319" x2="0.4699" y2="-1.2065" layer="21"/>
<rectangle x1="0.6477" y1="-1.2065" x2="2.2225" y2="-1.1811" layer="21"/>
<rectangle x1="-0.4699" y1="-1.2065" x2="-0.4445" y2="-1.1811" layer="21"/>
<rectangle x1="0.5461" y1="-1.2065" x2="0.5715" y2="-1.1811" layer="21"/>
<rectangle x1="0.6223" y1="-1.2065" x2="0.6477" y2="-1.1811" layer="21"/>
<rectangle x1="-0.4445" y1="-1.2065" x2="0.5461" y2="-1.1811" layer="21"/>
<rectangle x1="0.6477" y1="-1.1811" x2="2.2225" y2="-1.1557" layer="21"/>
<rectangle x1="-0.5207" y1="-1.1811" x2="-0.4953" y2="-1.1557" layer="21"/>
<rectangle x1="0.5969" y1="-1.1811" x2="0.6477" y2="-1.1557" layer="21"/>
<rectangle x1="-0.4953" y1="-1.1811" x2="0.5969" y2="-1.1557" layer="21"/>
<rectangle x1="0.6731" y1="-1.1557" x2="2.2225" y2="-1.1303" layer="21"/>
<rectangle x1="0.6477" y1="-1.1557" x2="0.6731" y2="-1.1303" layer="21"/>
<rectangle x1="-0.5715" y1="-1.1557" x2="-0.5461" y2="-1.1303" layer="21"/>
<rectangle x1="-0.5461" y1="-1.1557" x2="0.6477" y2="-1.1303" layer="21"/>
<rectangle x1="0.6985" y1="-1.1303" x2="2.2225" y2="-1.1049" layer="21"/>
<rectangle x1="0.6731" y1="-1.1303" x2="0.6985" y2="-1.1049" layer="21"/>
<rectangle x1="-0.6223" y1="-1.1303" x2="-0.5969" y2="-1.1049" layer="21"/>
<rectangle x1="-0.5969" y1="-1.1303" x2="0.6731" y2="-1.1049" layer="21"/>
<rectangle x1="0.7493" y1="-1.1049" x2="2.2225" y2="-1.0795" layer="21"/>
<rectangle x1="0.7239" y1="-1.1049" x2="0.7493" y2="-1.0795" layer="21"/>
<rectangle x1="-0.6477" y1="-1.1049" x2="0.7239" y2="-1.0795" layer="21"/>
<rectangle x1="0.8001" y1="-1.0795" x2="2.2225" y2="-1.0541" layer="21"/>
<rectangle x1="0.7747" y1="-1.0795" x2="0.8001" y2="-1.0541" layer="21"/>
<rectangle x1="-0.6985" y1="-1.0795" x2="-0.6731" y2="-1.0541" layer="21"/>
<rectangle x1="-0.6731" y1="-1.0795" x2="0.7747" y2="-1.0541" layer="21"/>
<rectangle x1="0.8255" y1="-1.0541" x2="2.2225" y2="-1.0287" layer="21"/>
<rectangle x1="0.8001" y1="-1.0541" x2="0.8255" y2="-1.0287" layer="21"/>
<rectangle x1="-0.7239" y1="-1.0541" x2="0.8001" y2="-1.0287" layer="21"/>
<rectangle x1="0.8509" y1="-1.0287" x2="2.2225" y2="-1.0033" layer="21"/>
<rectangle x1="0.8255" y1="-1.0287" x2="0.8509" y2="-1.0033" layer="21"/>
<rectangle x1="-0.7493" y1="-1.0287" x2="0.8255" y2="-1.0033" layer="21"/>
<rectangle x1="0.8763" y1="-1.0033" x2="2.2225" y2="-0.9779" layer="21"/>
<rectangle x1="-0.8001" y1="-1.0033" x2="-0.7747" y2="-0.9779" layer="21"/>
<rectangle x1="-0.7747" y1="-1.0033" x2="0.8763" y2="-0.9779" layer="21"/>
<rectangle x1="0.9271" y1="-0.9779" x2="2.2225" y2="-0.9525" layer="21"/>
<rectangle x1="0.9017" y1="-0.9779" x2="0.9271" y2="-0.9525" layer="21"/>
<rectangle x1="-0.8255" y1="-0.9779" x2="-0.8001" y2="-0.9525" layer="21"/>
<rectangle x1="-0.8001" y1="-0.9779" x2="0.9017" y2="-0.9525" layer="21"/>
<rectangle x1="0.9525" y1="-0.9525" x2="2.2225" y2="-0.9271" layer="21"/>
<rectangle x1="0.9271" y1="-0.9525" x2="0.9525" y2="-0.9271" layer="21"/>
<rectangle x1="-0.8509" y1="-0.9525" x2="-0.8255" y2="-0.9271" layer="21"/>
<rectangle x1="-0.8255" y1="-0.9525" x2="0.9271" y2="-0.9271" layer="21"/>
<rectangle x1="0.9779" y1="-0.9271" x2="2.2225" y2="-0.9017" layer="21"/>
<rectangle x1="0.9525" y1="-0.9271" x2="0.9779" y2="-0.9017" layer="21"/>
<rectangle x1="-0.8763" y1="-0.9271" x2="-0.8509" y2="-0.9017" layer="21"/>
<rectangle x1="-0.8509" y1="-0.9271" x2="0.9525" y2="-0.9017" layer="21"/>
<rectangle x1="0.9779" y1="-0.9017" x2="2.2225" y2="-0.8763" layer="21"/>
<rectangle x1="0.9525" y1="-0.9017" x2="0.9779" y2="-0.8763" layer="21"/>
<rectangle x1="-0.9017" y1="-0.9017" x2="-0.8763" y2="-0.8763" layer="21"/>
<rectangle x1="-0.8763" y1="-0.9017" x2="0.9525" y2="-0.8763" layer="21"/>
<rectangle x1="0.9525" y1="-0.8763" x2="2.2225" y2="-0.8509" layer="21"/>
<rectangle x1="0.9271" y1="-0.8763" x2="0.9525" y2="-0.8509" layer="21"/>
<rectangle x1="-0.9271" y1="-0.8763" x2="-0.9017" y2="-0.8509" layer="21"/>
<rectangle x1="-0.9017" y1="-0.8763" x2="0.9271" y2="-0.8509" layer="21"/>
<rectangle x1="0.9271" y1="-0.8509" x2="2.2225" y2="-0.8255" layer="21"/>
<rectangle x1="0.9017" y1="-0.8509" x2="0.9271" y2="-0.8255" layer="21"/>
<rectangle x1="-0.9525" y1="-0.8509" x2="-0.9271" y2="-0.8255" layer="21"/>
<rectangle x1="-0.9271" y1="-0.8509" x2="0.9017" y2="-0.8255" layer="21"/>
<rectangle x1="0.9017" y1="-0.8255" x2="2.2225" y2="-0.8001" layer="21"/>
<rectangle x1="0.8763" y1="-0.8255" x2="0.9017" y2="-0.8001" layer="21"/>
<rectangle x1="-0.9525" y1="-0.8255" x2="0.8763" y2="-0.8001" layer="21"/>
<rectangle x1="0.8763" y1="-0.8001" x2="2.2225" y2="-0.7747" layer="21"/>
<rectangle x1="0.8509" y1="-0.8001" x2="0.8763" y2="-0.7747" layer="21"/>
<rectangle x1="-0.9779" y1="-0.8001" x2="0.8509" y2="-0.7747" layer="21"/>
<rectangle x1="0.8509" y1="-0.7747" x2="2.2225" y2="-0.7493" layer="21"/>
<rectangle x1="0.8255" y1="-0.7747" x2="0.8509" y2="-0.7493" layer="21"/>
<rectangle x1="-1.0033" y1="-0.7747" x2="0.8255" y2="-0.7493" layer="21"/>
<rectangle x1="0.8255" y1="-0.7493" x2="2.2225" y2="-0.7239" layer="21"/>
<rectangle x1="0.8001" y1="-0.7493" x2="0.8255" y2="-0.7239" layer="21"/>
<rectangle x1="-1.0287" y1="-0.7493" x2="-1.0033" y2="-0.7239" layer="21"/>
<rectangle x1="-1.0033" y1="-0.7493" x2="0.8001" y2="-0.7239" layer="21"/>
<rectangle x1="0.8001" y1="-0.7239" x2="2.2225" y2="-0.6985" layer="21"/>
<rectangle x1="0.7747" y1="-0.7239" x2="0.8001" y2="-0.6985" layer="21"/>
<rectangle x1="-1.0287" y1="-0.7239" x2="0.7747" y2="-0.6985" layer="21"/>
<rectangle x1="0.7747" y1="-0.6985" x2="2.2225" y2="-0.6731" layer="21"/>
<rectangle x1="0.7493" y1="-0.6985" x2="0.7747" y2="-0.6731" layer="21"/>
<rectangle x1="-1.0541" y1="-0.6985" x2="0.7493" y2="-0.6731" layer="21"/>
<rectangle x1="0.7493" y1="-0.6731" x2="2.1971" y2="-0.6477" layer="21"/>
<rectangle x1="0.7239" y1="-0.6731" x2="0.7493" y2="-0.6477" layer="21"/>
<rectangle x1="2.1971" y1="-0.6731" x2="2.2225" y2="-0.6477" layer="21"/>
<rectangle x1="-1.0541" y1="-0.6731" x2="-0.0889" y2="-0.6477" layer="21"/>
<rectangle x1="0.1905" y1="-0.6731" x2="0.5969" y2="-0.6477" layer="21"/>
<rectangle x1="0.6223" y1="-0.6731" x2="0.7239" y2="-0.6477" layer="21"/>
<rectangle x1="0.7239" y1="-0.6477" x2="1.7399" y2="-0.6223" layer="21"/>
<rectangle x1="0.6985" y1="-0.6477" x2="0.7239" y2="-0.6223" layer="21"/>
<rectangle x1="1.7399" y1="-0.6477" x2="1.7907" y2="-0.6223" layer="21"/>
<rectangle x1="1.7907" y1="-0.6477" x2="1.8161" y2="-0.6223" layer="21"/>
<rectangle x1="-1.0795" y1="-0.6477" x2="-0.1651" y2="-0.6223" layer="21"/>
<rectangle x1="0.2667" y1="-0.6477" x2="0.5715" y2="-0.6223" layer="21"/>
<rectangle x1="0.6223" y1="-0.6477" x2="0.6985" y2="-0.6223" layer="21"/>
<rectangle x1="0.6985" y1="-0.6223" x2="1.6637" y2="-0.5969" layer="21"/>
<rectangle x1="0.6731" y1="-0.6223" x2="0.6985" y2="-0.5969" layer="21"/>
<rectangle x1="1.6637" y1="-0.6223" x2="1.6891" y2="-0.5969" layer="21"/>
<rectangle x1="-1.1049" y1="-0.6223" x2="-1.0795" y2="-0.5969" layer="21"/>
<rectangle x1="1.6891" y1="-0.6223" x2="1.7145" y2="-0.5969" layer="21"/>
<rectangle x1="-1.0795" y1="-0.6223" x2="-0.2413" y2="-0.5969" layer="21"/>
<rectangle x1="0.3429" y1="-0.6223" x2="0.5461" y2="-0.5969" layer="21"/>
<rectangle x1="0.6223" y1="-0.6223" x2="0.6731" y2="-0.5969" layer="21"/>
<rectangle x1="0.6731" y1="-0.5969" x2="1.6129" y2="-0.5715" layer="21"/>
<rectangle x1="0.6477" y1="-0.5969" x2="0.6731" y2="-0.5715" layer="21"/>
<rectangle x1="1.6129" y1="-0.5969" x2="1.6383" y2="-0.5715" layer="21"/>
<rectangle x1="-1.1049" y1="-0.5969" x2="-0.2921" y2="-0.5715" layer="21"/>
<rectangle x1="0.3937" y1="-0.5969" x2="0.5207" y2="-0.5715" layer="21"/>
<rectangle x1="0.6223" y1="-0.5969" x2="0.6477" y2="-0.5715" layer="21"/>
<rectangle x1="0.6477" y1="-0.5715" x2="1.5875" y2="-0.5461" layer="21"/>
<rectangle x1="0.6223" y1="-0.5715" x2="0.6477" y2="-0.5461" layer="21"/>
<rectangle x1="-1.1303" y1="-0.5715" x2="-1.1049" y2="-0.5461" layer="21"/>
<rectangle x1="1.5875" y1="-0.5715" x2="1.6129" y2="-0.5461" layer="21"/>
<rectangle x1="-1.1049" y1="-0.5715" x2="-0.3175" y2="-0.5461" layer="21"/>
<rectangle x1="0.4445" y1="-0.5715" x2="0.4953" y2="-0.5461" layer="21"/>
<rectangle x1="0.6477" y1="-0.5461" x2="1.5367" y2="-0.5207" layer="21"/>
<rectangle x1="1.5367" y1="-0.5461" x2="1.5621" y2="-0.5207" layer="21"/>
<rectangle x1="0.6223" y1="-0.5461" x2="0.6477" y2="-0.5207" layer="21"/>
<rectangle x1="-1.1303" y1="-0.5461" x2="-0.3683" y2="-0.5207" layer="21"/>
<rectangle x1="0.6477" y1="-0.5207" x2="1.5113" y2="-0.4953" layer="21"/>
<rectangle x1="0.6223" y1="-0.5207" x2="0.6477" y2="-0.4953" layer="21"/>
<rectangle x1="1.5113" y1="-0.5207" x2="1.5367" y2="-0.4953" layer="21"/>
<rectangle x1="-1.1303" y1="-0.5207" x2="-0.3937" y2="-0.4953" layer="21"/>
<rectangle x1="0.6477" y1="-0.4953" x2="1.4859" y2="-0.4699" layer="21"/>
<rectangle x1="-1.1557" y1="-0.4953" x2="-1.1303" y2="-0.4699" layer="21"/>
<rectangle x1="0.6223" y1="-0.4953" x2="0.6477" y2="-0.4699" layer="21"/>
<rectangle x1="1.4859" y1="-0.4953" x2="1.5113" y2="-0.4699" layer="21"/>
<rectangle x1="-1.1303" y1="-0.4953" x2="-0.4191" y2="-0.4699" layer="21"/>
<rectangle x1="0.6477" y1="-0.4699" x2="1.4605" y2="-0.4445" layer="21"/>
<rectangle x1="0.6223" y1="-0.4699" x2="0.6477" y2="-0.4445" layer="21"/>
<rectangle x1="1.4605" y1="-0.4699" x2="1.4859" y2="-0.4445" layer="21"/>
<rectangle x1="-1.1557" y1="-0.4699" x2="-0.4445" y2="-0.4445" layer="21"/>
<rectangle x1="0.6477" y1="-0.4445" x2="1.4351" y2="-0.4191" layer="21"/>
<rectangle x1="-1.1811" y1="-0.4445" x2="-1.1557" y2="-0.4191" layer="21"/>
<rectangle x1="0.6223" y1="-0.4445" x2="0.6477" y2="-0.4191" layer="21"/>
<rectangle x1="1.4351" y1="-0.4445" x2="1.4605" y2="-0.4191" layer="21"/>
<rectangle x1="-1.1557" y1="-0.4445" x2="-0.4699" y2="-0.4191" layer="21"/>
<rectangle x1="0.6477" y1="-0.4191" x2="1.4097" y2="-0.3937" layer="21"/>
<rectangle x1="0.6223" y1="-0.4191" x2="0.6477" y2="-0.3937" layer="21"/>
<rectangle x1="1.4097" y1="-0.4191" x2="1.4351" y2="-0.3937" layer="21"/>
<rectangle x1="-1.1811" y1="-0.4191" x2="-0.4953" y2="-0.3937" layer="21"/>
<rectangle x1="0.6477" y1="-0.3937" x2="1.3843" y2="-0.3683" layer="21"/>
<rectangle x1="1.3843" y1="-0.3937" x2="1.4097" y2="-0.3683" layer="21"/>
<rectangle x1="0.6223" y1="-0.3937" x2="0.6477" y2="-0.3683" layer="21"/>
<rectangle x1="-1.1811" y1="-0.3937" x2="-0.4953" y2="-0.3683" layer="21"/>
<rectangle x1="0.6477" y1="-0.3683" x2="1.3843" y2="-0.3429" layer="21"/>
<rectangle x1="-1.2065" y1="-0.3683" x2="-1.1811" y2="-0.3429" layer="21"/>
<rectangle x1="0.6223" y1="-0.3683" x2="0.6477" y2="-0.3429" layer="21"/>
<rectangle x1="-1.1811" y1="-0.3683" x2="-0.5207" y2="-0.3429" layer="21"/>
<rectangle x1="0.6477" y1="-0.3429" x2="1.3589" y2="-0.3175" layer="21"/>
<rectangle x1="-1.2065" y1="-0.3429" x2="-1.1811" y2="-0.3175" layer="21"/>
<rectangle x1="0.6223" y1="-0.3429" x2="0.6477" y2="-0.3175" layer="21"/>
<rectangle x1="1.3589" y1="-0.3429" x2="1.3843" y2="-0.3175" layer="21"/>
<rectangle x1="-1.1811" y1="-0.3429" x2="-0.5461" y2="-0.3175" layer="21"/>
<rectangle x1="0.6477" y1="-0.3175" x2="1.3335" y2="-0.2921" layer="21"/>
<rectangle x1="1.3335" y1="-0.3175" x2="1.3589" y2="-0.2921" layer="21"/>
<rectangle x1="0.6223" y1="-0.3175" x2="0.6477" y2="-0.2921" layer="21"/>
<rectangle x1="-1.2065" y1="-0.3175" x2="-0.5461" y2="-0.2921" layer="21"/>
<rectangle x1="0.6477" y1="-0.2921" x2="1.3335" y2="-0.2667" layer="21"/>
<rectangle x1="0.6223" y1="-0.2921" x2="0.6477" y2="-0.2667" layer="21"/>
<rectangle x1="1.3335" y1="-0.2921" x2="1.3589" y2="-0.2667" layer="21"/>
<rectangle x1="-1.2065" y1="-0.2921" x2="-0.5715" y2="-0.2667" layer="21"/>
<rectangle x1="0.6477" y1="-0.2667" x2="1.3335" y2="-0.2413" layer="21"/>
<rectangle x1="0.6223" y1="-0.2667" x2="0.6477" y2="-0.2413" layer="21"/>
<rectangle x1="-1.2065" y1="-0.2667" x2="-0.5715" y2="-0.2413" layer="21"/>
<rectangle x1="0.6477" y1="-0.2413" x2="1.3081" y2="-0.2159" layer="21"/>
<rectangle x1="1.3081" y1="-0.2413" x2="1.3335" y2="-0.2159" layer="21"/>
<rectangle x1="-1.2319" y1="-0.2413" x2="-1.2065" y2="-0.2159" layer="21"/>
<rectangle x1="0.6223" y1="-0.2413" x2="0.6477" y2="-0.2159" layer="21"/>
<rectangle x1="-1.2065" y1="-0.2413" x2="-0.5715" y2="-0.2159" layer="21"/>
<rectangle x1="0.6477" y1="-0.2159" x2="1.3081" y2="-0.1905" layer="21"/>
<rectangle x1="-1.2319" y1="-0.2159" x2="-1.2065" y2="-0.1905" layer="21"/>
<rectangle x1="0.6223" y1="-0.2159" x2="0.6477" y2="-0.1905" layer="21"/>
<rectangle x1="-1.2065" y1="-0.2159" x2="-0.5969" y2="-0.1905" layer="21"/>
<rectangle x1="0.6477" y1="-0.1905" x2="1.2827" y2="-0.1651" layer="21"/>
<rectangle x1="1.2827" y1="-0.1905" x2="1.3081" y2="-0.1651" layer="21"/>
<rectangle x1="0.6223" y1="-0.1905" x2="0.6477" y2="-0.1651" layer="21"/>
<rectangle x1="-1.2319" y1="-0.1905" x2="-0.5969" y2="-0.1651" layer="21"/>
<rectangle x1="0.6477" y1="-0.1651" x2="1.2827" y2="-0.1397" layer="21"/>
<rectangle x1="1.2827" y1="-0.1651" x2="1.3081" y2="-0.1397" layer="21"/>
<rectangle x1="0.6223" y1="-0.1651" x2="0.6477" y2="-0.1397" layer="21"/>
<rectangle x1="-1.2319" y1="-0.1651" x2="-0.5969" y2="-0.1397" layer="21"/>
<rectangle x1="0.6477" y1="-0.1397" x2="1.2827" y2="-0.1143" layer="21"/>
<rectangle x1="0.6223" y1="-0.1397" x2="0.6477" y2="-0.1143" layer="21"/>
<rectangle x1="1.2827" y1="-0.1397" x2="1.3081" y2="-0.1143" layer="21"/>
<rectangle x1="-1.2319" y1="-0.1397" x2="-0.5969" y2="-0.1143" layer="21"/>
<rectangle x1="0.6477" y1="-0.1143" x2="1.2827" y2="-0.0889" layer="21"/>
<rectangle x1="0.6223" y1="-0.1143" x2="0.6477" y2="-0.0889" layer="21"/>
<rectangle x1="-1.2319" y1="-0.1143" x2="-0.6223" y2="-0.0889" layer="21"/>
<rectangle x1="0.6477" y1="-0.0889" x2="1.2827" y2="-0.0635" layer="21"/>
<rectangle x1="0.6223" y1="-0.0889" x2="0.6477" y2="-0.0635" layer="21"/>
<rectangle x1="-1.2319" y1="-0.0889" x2="-0.6223" y2="-0.0635" layer="21"/>
<rectangle x1="0.6477" y1="-0.0635" x2="1.2827" y2="-0.0381" layer="21"/>
<rectangle x1="0.6223" y1="-0.0635" x2="0.6477" y2="-0.0381" layer="21"/>
<rectangle x1="-1.2319" y1="-0.0635" x2="-0.6223" y2="-0.0381" layer="21"/>
<rectangle x1="0.6477" y1="-0.0381" x2="1.2827" y2="-0.0127" layer="21"/>
<rectangle x1="0.6223" y1="-0.0381" x2="0.6477" y2="-0.0127" layer="21"/>
<rectangle x1="-1.2319" y1="-0.0381" x2="-0.6223" y2="-0.0127" layer="21"/>
<rectangle x1="0.6477" y1="-0.0127" x2="1.2827" y2="0.0127" layer="21"/>
<rectangle x1="0.6223" y1="-0.0127" x2="0.6477" y2="0.0127" layer="21"/>
<rectangle x1="-1.2319" y1="-0.0127" x2="-0.6223" y2="0.0127" layer="21"/>
<rectangle x1="0.6477" y1="0.0127" x2="1.2827" y2="0.0381" layer="21"/>
<rectangle x1="0.6223" y1="0.0127" x2="0.6477" y2="0.0381" layer="21"/>
<rectangle x1="-1.2319" y1="0.0127" x2="-0.6223" y2="0.0381" layer="21"/>
<rectangle x1="0.6477" y1="0.0381" x2="1.2827" y2="0.0635" layer="21"/>
<rectangle x1="0.6223" y1="0.0381" x2="0.6477" y2="0.0635" layer="21"/>
<rectangle x1="-1.2319" y1="0.0381" x2="-0.6223" y2="0.0635" layer="21"/>
<rectangle x1="0.6477" y1="0.0635" x2="1.2827" y2="0.0889" layer="21"/>
<rectangle x1="0.6223" y1="0.0635" x2="0.6477" y2="0.0889" layer="21"/>
<rectangle x1="-1.2319" y1="0.0635" x2="-0.6223" y2="0.0889" layer="21"/>
<rectangle x1="0.6477" y1="0.0889" x2="1.2827" y2="0.1143" layer="21"/>
<rectangle x1="1.2827" y1="0.0889" x2="1.3081" y2="0.1143" layer="21"/>
<rectangle x1="-1.2319" y1="0.0889" x2="-0.5969" y2="0.1143" layer="21"/>
<rectangle x1="0.6477" y1="0.1143" x2="1.2827" y2="0.1397" layer="21"/>
<rectangle x1="1.2827" y1="0.1143" x2="1.3081" y2="0.1397" layer="21"/>
<rectangle x1="-1.2319" y1="0.1143" x2="-0.5969" y2="0.1397" layer="21"/>
<rectangle x1="0.6477" y1="0.1397" x2="1.3081" y2="0.1651" layer="21"/>
<rectangle x1="-1.2319" y1="0.1397" x2="-0.5969" y2="0.1651" layer="21"/>
<rectangle x1="0.6477" y1="0.1651" x2="1.3081" y2="0.1905" layer="21"/>
<rectangle x1="-1.2319" y1="0.1651" x2="-1.2065" y2="0.1905" layer="21"/>
<rectangle x1="-1.2065" y1="0.1651" x2="-0.5969" y2="0.1905" layer="21"/>
<rectangle x1="0.6731" y1="0.1905" x2="1.3081" y2="0.2159" layer="21"/>
<rectangle x1="0.6477" y1="0.1905" x2="0.6731" y2="0.2159" layer="21"/>
<rectangle x1="1.3081" y1="0.1905" x2="1.3335" y2="0.2159" layer="21"/>
<rectangle x1="-1.2319" y1="0.1905" x2="-1.2065" y2="0.2159" layer="21"/>
<rectangle x1="-1.2065" y1="0.1905" x2="-0.5715" y2="0.2159" layer="21"/>
<rectangle x1="0.6731" y1="0.2159" x2="1.3335" y2="0.2413" layer="21"/>
<rectangle x1="0.6477" y1="0.2159" x2="0.6731" y2="0.2413" layer="21"/>
<rectangle x1="-1.2065" y1="0.2159" x2="-0.5715" y2="0.2413" layer="21"/>
<rectangle x1="0.6731" y1="0.2413" x2="1.3335" y2="0.2667" layer="21"/>
<rectangle x1="0.6477" y1="0.2413" x2="0.6731" y2="0.2667" layer="21"/>
<rectangle x1="1.3335" y1="0.2413" x2="1.3589" y2="0.2667" layer="21"/>
<rectangle x1="-1.2065" y1="0.2413" x2="-0.5715" y2="0.2667" layer="21"/>
<rectangle x1="0.6731" y1="0.2667" x2="1.3589" y2="0.2921" layer="21"/>
<rectangle x1="-1.2065" y1="0.2667" x2="-0.5461" y2="0.2921" layer="21"/>
<rectangle x1="0.6985" y1="0.2921" x2="1.3589" y2="0.3175" layer="21"/>
<rectangle x1="0.6731" y1="0.2921" x2="0.6985" y2="0.3175" layer="21"/>
<rectangle x1="-1.2065" y1="0.2921" x2="-1.1811" y2="0.3175" layer="21"/>
<rectangle x1="1.3589" y1="0.2921" x2="1.3843" y2="0.3175" layer="21"/>
<rectangle x1="-1.1811" y1="0.2921" x2="-0.5461" y2="0.3175" layer="21"/>
<rectangle x1="0.6985" y1="0.3175" x2="1.3843" y2="0.3429" layer="21"/>
<rectangle x1="0.6731" y1="0.3175" x2="0.6985" y2="0.3429" layer="21"/>
<rectangle x1="-1.1811" y1="0.3175" x2="-0.5207" y2="0.3429" layer="21"/>
<rectangle x1="0.6985" y1="0.3429" x2="1.3843" y2="0.3683" layer="21"/>
<rectangle x1="1.3843" y1="0.3429" x2="1.4097" y2="0.3683" layer="21"/>
<rectangle x1="0.6731" y1="0.3429" x2="0.6985" y2="0.3683" layer="21"/>
<rectangle x1="-1.1811" y1="0.3429" x2="-0.4953" y2="0.3683" layer="21"/>
<rectangle x1="0.6985" y1="0.3683" x2="1.4097" y2="0.3937" layer="21"/>
<rectangle x1="1.4097" y1="0.3683" x2="1.4351" y2="0.3937" layer="21"/>
<rectangle x1="-1.1811" y1="0.3683" x2="-0.4953" y2="0.3937" layer="21"/>
<rectangle x1="0.7239" y1="0.3937" x2="1.4351" y2="0.4191" layer="21"/>
<rectangle x1="0.6985" y1="0.3937" x2="0.7239" y2="0.4191" layer="21"/>
<rectangle x1="-1.1811" y1="0.3937" x2="-1.1557" y2="0.4191" layer="21"/>
<rectangle x1="1.4351" y1="0.3937" x2="1.4605" y2="0.4191" layer="21"/>
<rectangle x1="-1.1557" y1="0.3937" x2="-0.4699" y2="0.4191" layer="21"/>
<rectangle x1="0.7239" y1="0.4191" x2="1.4605" y2="0.4445" layer="21"/>
<rectangle x1="2.4003" y1="0.4191" x2="2.4257" y2="0.4445" layer="21"/>
<rectangle x1="2.3749" y1="0.4191" x2="2.4003" y2="0.4445" layer="21"/>
<rectangle x1="0.6985" y1="0.4191" x2="0.7239" y2="0.4445" layer="21"/>
<rectangle x1="1.4605" y1="0.4191" x2="1.4859" y2="0.4445" layer="21"/>
<rectangle x1="-1.1557" y1="0.4191" x2="-0.4445" y2="0.4445" layer="21"/>
<rectangle x1="0.7239" y1="0.4445" x2="1.4859" y2="0.4699" layer="21"/>
<rectangle x1="2.3749" y1="0.4445" x2="2.4511" y2="0.4699" layer="21"/>
<rectangle x1="2.3495" y1="0.4445" x2="2.3749" y2="0.4699" layer="21"/>
<rectangle x1="-1.1557" y1="0.4445" x2="-1.1303" y2="0.4699" layer="21"/>
<rectangle x1="1.4859" y1="0.4445" x2="1.5113" y2="0.4699" layer="21"/>
<rectangle x1="-1.1303" y1="0.4445" x2="-0.4191" y2="0.4699" layer="21"/>
<rectangle x1="0.7493" y1="0.4699" x2="1.5113" y2="0.4953" layer="21"/>
<rectangle x1="2.3241" y1="0.4699" x2="2.4765" y2="0.4953" layer="21"/>
<rectangle x1="0.7239" y1="0.4699" x2="0.7493" y2="0.4953" layer="21"/>
<rectangle x1="1.5113" y1="0.4699" x2="1.5367" y2="0.4953" layer="21"/>
<rectangle x1="-1.1303" y1="0.4699" x2="-0.3937" y2="0.4953" layer="21"/>
<rectangle x1="0.7493" y1="0.4953" x2="1.5367" y2="0.5207" layer="21"/>
<rectangle x1="2.2987" y1="0.4953" x2="2.5019" y2="0.5207" layer="21"/>
<rectangle x1="1.5367" y1="0.4953" x2="1.5621" y2="0.5207" layer="21"/>
<rectangle x1="2.2733" y1="0.4953" x2="2.2987" y2="0.5207" layer="21"/>
<rectangle x1="-1.1303" y1="0.4953" x2="-0.3683" y2="0.5207" layer="21"/>
<rectangle x1="0.7747" y1="0.5207" x2="1.5875" y2="0.5461" layer="21"/>
<rectangle x1="2.2733" y1="0.5207" x2="2.5273" y2="0.5461" layer="21"/>
<rectangle x1="0.7493" y1="0.5207" x2="0.7747" y2="0.5461" layer="21"/>
<rectangle x1="2.2479" y1="0.5207" x2="2.2733" y2="0.5461" layer="21"/>
<rectangle x1="-1.1303" y1="0.5207" x2="-1.1049" y2="0.5461" layer="21"/>
<rectangle x1="1.5875" y1="0.5207" x2="1.6129" y2="0.5461" layer="21"/>
<rectangle x1="-1.1049" y1="0.5207" x2="-0.3175" y2="0.5461" layer="21"/>
<rectangle x1="0.4191" y1="0.5207" x2="0.4445" y2="0.5461" layer="21"/>
<rectangle x1="0.7747" y1="0.5461" x2="1.6129" y2="0.5715" layer="21"/>
<rectangle x1="2.2225" y1="0.5461" x2="2.5527" y2="0.5715" layer="21"/>
<rectangle x1="1.6129" y1="0.5461" x2="1.6383" y2="0.5715" layer="21"/>
<rectangle x1="2.1971" y1="0.5461" x2="2.2225" y2="0.5715" layer="21"/>
<rectangle x1="-1.1049" y1="0.5461" x2="-0.2667" y2="0.5715" layer="21"/>
<rectangle x1="0.3937" y1="0.5461" x2="0.4699" y2="0.5715" layer="21"/>
<rectangle x1="0.8001" y1="0.5715" x2="1.6637" y2="0.5969" layer="21"/>
<rectangle x1="2.1717" y1="0.5715" x2="2.5781" y2="0.5969" layer="21"/>
<rectangle x1="0.7747" y1="0.5715" x2="0.8001" y2="0.5969" layer="21"/>
<rectangle x1="1.6637" y1="0.5715" x2="1.6891" y2="0.5969" layer="21"/>
<rectangle x1="2.1463" y1="0.5715" x2="2.1717" y2="0.5969" layer="21"/>
<rectangle x1="1.6891" y1="0.5715" x2="1.7145" y2="0.5969" layer="21"/>
<rectangle x1="2.1209" y1="0.5715" x2="2.1463" y2="0.5969" layer="21"/>
<rectangle x1="-1.0795" y1="0.5715" x2="-0.2413" y2="0.5969" layer="21"/>
<rectangle x1="0.3429" y1="0.5715" x2="0.4953" y2="0.5969" layer="21"/>
<rectangle x1="0.8001" y1="0.5969" x2="1.7399" y2="0.6223" layer="21"/>
<rectangle x1="2.0955" y1="0.5969" x2="2.6035" y2="0.6223" layer="21"/>
<rectangle x1="1.7399" y1="0.5969" x2="1.7907" y2="0.6223" layer="21"/>
<rectangle x1="2.0701" y1="0.5969" x2="2.0955" y2="0.6223" layer="21"/>
<rectangle x1="1.7907" y1="0.5969" x2="1.8161" y2="0.6223" layer="21"/>
<rectangle x1="2.0447" y1="0.5969" x2="2.0701" y2="0.6223" layer="21"/>
<rectangle x1="-1.0795" y1="0.5969" x2="-0.1651" y2="0.6223" layer="21"/>
<rectangle x1="0.2667" y1="0.5969" x2="0.5207" y2="0.6223" layer="21"/>
<rectangle x1="0.8255" y1="0.6223" x2="1.8669" y2="0.6477" layer="21"/>
<rectangle x1="1.8923" y1="0.6223" x2="2.6289" y2="0.6477" layer="21"/>
<rectangle x1="1.8669" y1="0.6223" x2="1.8923" y2="0.6477" layer="21"/>
<rectangle x1="0.8001" y1="0.6223" x2="0.8255" y2="0.6477" layer="21"/>
<rectangle x1="-1.0541" y1="0.6223" x2="-0.0635" y2="0.6477" layer="21"/>
<rectangle x1="0.1651" y1="0.6223" x2="0.5461" y2="0.6477" layer="21"/>
<rectangle x1="0.8509" y1="0.6477" x2="2.6543" y2="0.6731" layer="21"/>
<rectangle x1="0.8255" y1="0.6477" x2="0.8509" y2="0.6731" layer="21"/>
<rectangle x1="-1.0541" y1="0.6477" x2="-1.0287" y2="0.6731" layer="21"/>
<rectangle x1="-1.0287" y1="0.6477" x2="0.5715" y2="0.6731" layer="21"/>
<rectangle x1="0.8509" y1="0.6731" x2="2.6797" y2="0.6985" layer="21"/>
<rectangle x1="0.8255" y1="0.6731" x2="0.8509" y2="0.6985" layer="21"/>
<rectangle x1="-1.0287" y1="0.6731" x2="0.5969" y2="0.6985" layer="21"/>
<rectangle x1="0.8763" y1="0.6985" x2="2.7051" y2="0.7239" layer="21"/>
<rectangle x1="0.8509" y1="0.6985" x2="0.8763" y2="0.7239" layer="21"/>
<rectangle x1="-1.0287" y1="0.6985" x2="-1.0033" y2="0.7239" layer="21"/>
<rectangle x1="-1.0033" y1="0.6985" x2="0.6223" y2="0.7239" layer="21"/>
<rectangle x1="0.9017" y1="0.7239" x2="2.7305" y2="0.7493" layer="21"/>
<rectangle x1="0.8763" y1="0.7239" x2="0.9017" y2="0.7493" layer="21"/>
<rectangle x1="-1.0033" y1="0.7239" x2="-0.9779" y2="0.7493" layer="21"/>
<rectangle x1="-0.9779" y1="0.7239" x2="0.6477" y2="0.7493" layer="21"/>
<rectangle x1="0.9017" y1="0.7493" x2="2.7559" y2="0.7747" layer="21"/>
<rectangle x1="-0.9779" y1="0.7493" x2="0.6731" y2="0.7747" layer="21"/>
<rectangle x1="0.9271" y1="0.7747" x2="2.7813" y2="0.8001" layer="21"/>
<rectangle x1="-0.9525" y1="0.7747" x2="0.6985" y2="0.8001" layer="21"/>
<rectangle x1="0.9525" y1="0.8001" x2="2.8067" y2="0.8255" layer="21"/>
<rectangle x1="-0.9271" y1="0.8001" x2="0.7239" y2="0.8255" layer="21"/>
<rectangle x1="0.9779" y1="0.8255" x2="2.8321" y2="0.8509" layer="21"/>
<rectangle x1="-0.9271" y1="0.8255" x2="-0.9017" y2="0.8509" layer="21"/>
<rectangle x1="-0.9017" y1="0.8255" x2="0.7493" y2="0.8509" layer="21"/>
<rectangle x1="1.0033" y1="0.8509" x2="2.8575" y2="0.8763" layer="21"/>
<rectangle x1="-0.9017" y1="0.8509" x2="-0.8763" y2="0.8763" layer="21"/>
<rectangle x1="-0.8763" y1="0.8509" x2="0.7747" y2="0.8763" layer="21"/>
<rectangle x1="1.0287" y1="0.8763" x2="2.8321" y2="0.9017" layer="21"/>
<rectangle x1="-0.8763" y1="0.8763" x2="-0.8509" y2="0.9017" layer="21"/>
<rectangle x1="2.8321" y1="0.8763" x2="2.8575" y2="0.9017" layer="21"/>
<rectangle x1="-0.8509" y1="0.8763" x2="0.8001" y2="0.9017" layer="21"/>
<rectangle x1="1.0541" y1="0.9017" x2="2.8067" y2="0.9271" layer="21"/>
<rectangle x1="-0.8509" y1="0.9017" x2="-0.8255" y2="0.9271" layer="21"/>
<rectangle x1="2.8067" y1="0.9017" x2="2.8321" y2="0.9271" layer="21"/>
<rectangle x1="-0.8255" y1="0.9017" x2="0.8255" y2="0.9271" layer="21"/>
<rectangle x1="1.0795" y1="0.9271" x2="2.7813" y2="0.9525" layer="21"/>
<rectangle x1="-0.8255" y1="0.9271" x2="-0.8001" y2="0.9525" layer="21"/>
<rectangle x1="2.7813" y1="0.9271" x2="2.8067" y2="0.9525" layer="21"/>
<rectangle x1="-0.8001" y1="0.9271" x2="0.8509" y2="0.9525" layer="21"/>
<rectangle x1="1.1049" y1="0.9525" x2="2.7559" y2="0.9779" layer="21"/>
<rectangle x1="1.0795" y1="0.9525" x2="1.1049" y2="0.9779" layer="21"/>
<rectangle x1="-0.8001" y1="0.9525" x2="-0.7747" y2="0.9779" layer="21"/>
<rectangle x1="-0.7747" y1="0.9525" x2="0.8763" y2="0.9779" layer="21"/>
<rectangle x1="1.1303" y1="0.9779" x2="2.7051" y2="1.0033" layer="21"/>
<rectangle x1="2.7051" y1="0.9779" x2="2.7305" y2="1.0033" layer="21"/>
<rectangle x1="1.1049" y1="0.9779" x2="1.1303" y2="1.0033" layer="21"/>
<rectangle x1="-0.7493" y1="0.9779" x2="0.8509" y2="1.0033" layer="21"/>
<rectangle x1="1.1557" y1="1.0033" x2="2.6797" y2="1.0287" layer="21"/>
<rectangle x1="2.6797" y1="1.0033" x2="2.7051" y2="1.0287" layer="21"/>
<rectangle x1="0.8001" y1="1.0033" x2="0.8255" y2="1.0287" layer="21"/>
<rectangle x1="-0.7239" y1="1.0033" x2="0.8001" y2="1.0287" layer="21"/>
<rectangle x1="1.2065" y1="1.0287" x2="2.6543" y2="1.0541" layer="21"/>
<rectangle x1="1.1811" y1="1.0287" x2="1.2065" y2="1.0541" layer="21"/>
<rectangle x1="-0.6985" y1="1.0287" x2="-0.6731" y2="1.0541" layer="21"/>
<rectangle x1="2.6543" y1="1.0287" x2="2.6797" y2="1.0541" layer="21"/>
<rectangle x1="-0.6731" y1="1.0287" x2="0.7747" y2="1.0541" layer="21"/>
<rectangle x1="1.2319" y1="1.0541" x2="2.6035" y2="1.0795" layer="21"/>
<rectangle x1="2.6035" y1="1.0541" x2="2.6289" y2="1.0795" layer="21"/>
<rectangle x1="0.7239" y1="1.0541" x2="0.7493" y2="1.0795" layer="21"/>
<rectangle x1="1.2065" y1="1.0541" x2="1.2319" y2="1.0795" layer="21"/>
<rectangle x1="-0.6477" y1="1.0541" x2="0.7239" y2="1.0795" layer="21"/>
<rectangle x1="1.2827" y1="1.0795" x2="2.5781" y2="1.1049" layer="21"/>
<rectangle x1="1.2573" y1="1.0795" x2="1.2827" y2="1.1049" layer="21"/>
<rectangle x1="-0.6223" y1="1.0795" x2="-0.5969" y2="1.1049" layer="21"/>
<rectangle x1="-0.5969" y1="1.0795" x2="0.6985" y2="1.1049" layer="21"/>
<rectangle x1="1.3335" y1="1.1049" x2="2.5019" y2="1.1303" layer="21"/>
<rectangle x1="1.3081" y1="1.1049" x2="1.3335" y2="1.1303" layer="21"/>
<rectangle x1="2.5019" y1="1.1049" x2="2.5273" y2="1.1303" layer="21"/>
<rectangle x1="-0.5715" y1="1.1049" x2="-0.5461" y2="1.1303" layer="21"/>
<rectangle x1="0.6477" y1="1.1049" x2="0.6731" y2="1.1303" layer="21"/>
<rectangle x1="2.5273" y1="1.1049" x2="2.5527" y2="1.1303" layer="21"/>
<rectangle x1="-0.5461" y1="1.1049" x2="0.6477" y2="1.1303" layer="21"/>
<rectangle x1="1.3843" y1="1.1303" x2="2.4765" y2="1.1557" layer="21"/>
<rectangle x1="1.3589" y1="1.1303" x2="1.3843" y2="1.1557" layer="21"/>
<rectangle x1="-0.5207" y1="1.1303" x2="-0.4953" y2="1.1557" layer="21"/>
<rectangle x1="0.5969" y1="1.1303" x2="0.6223" y2="1.1557" layer="21"/>
<rectangle x1="2.4765" y1="1.1303" x2="2.5019" y2="1.1557" layer="21"/>
<rectangle x1="-0.4953" y1="1.1303" x2="0.5969" y2="1.1557" layer="21"/>
<rectangle x1="1.4351" y1="1.1557" x2="2.4003" y2="1.1811" layer="21"/>
<rectangle x1="1.4097" y1="1.1557" x2="1.4351" y2="1.1811" layer="21"/>
<rectangle x1="2.4003" y1="1.1557" x2="2.4257" y2="1.1811" layer="21"/>
<rectangle x1="-0.4699" y1="1.1557" x2="-0.4445" y2="1.1811" layer="21"/>
<rectangle x1="0.5461" y1="1.1557" x2="0.5715" y2="1.1811" layer="21"/>
<rectangle x1="2.4257" y1="1.1557" x2="2.4511" y2="1.1811" layer="21"/>
<rectangle x1="-0.4445" y1="1.1557" x2="0.5461" y2="1.1811" layer="21"/>
<rectangle x1="1.5113" y1="1.1811" x2="2.3495" y2="1.2065" layer="21"/>
<rectangle x1="1.4859" y1="1.1811" x2="1.5113" y2="1.2065" layer="21"/>
<rectangle x1="2.3495" y1="1.1811" x2="2.3749" y2="1.2065" layer="21"/>
<rectangle x1="0.4699" y1="1.1811" x2="0.4953" y2="1.2065" layer="21"/>
<rectangle x1="1.4605" y1="1.1811" x2="1.4859" y2="1.2065" layer="21"/>
<rectangle x1="-0.3937" y1="1.1811" x2="0.4699" y2="1.2065" layer="21"/>
<rectangle x1="1.5875" y1="1.2065" x2="2.2479" y2="1.2319" layer="21"/>
<rectangle x1="1.5621" y1="1.2065" x2="1.5875" y2="1.2319" layer="21"/>
<rectangle x1="2.2479" y1="1.2065" x2="2.2987" y2="1.2319" layer="21"/>
<rectangle x1="-0.3175" y1="1.2065" x2="-0.2921" y2="1.2319" layer="21"/>
<rectangle x1="0.3937" y1="1.2065" x2="0.4191" y2="1.2319" layer="21"/>
<rectangle x1="1.5367" y1="1.2065" x2="1.5621" y2="1.2319" layer="21"/>
<rectangle x1="-0.2921" y1="1.2065" x2="0.3937" y2="1.2319" layer="21"/>
<rectangle x1="1.6891" y1="1.2319" x2="2.1463" y2="1.2573" layer="21"/>
<rectangle x1="1.6637" y1="1.2319" x2="1.6891" y2="1.2573" layer="21"/>
<rectangle x1="2.1463" y1="1.2319" x2="2.1971" y2="1.2573" layer="21"/>
<rectangle x1="-0.2413" y1="1.2319" x2="-0.1905" y2="1.2573" layer="21"/>
<rectangle x1="0.2921" y1="1.2319" x2="0.3175" y2="1.2573" layer="21"/>
<rectangle x1="1.6383" y1="1.2319" x2="1.6637" y2="1.2573" layer="21"/>
<rectangle x1="2.1971" y1="1.2319" x2="2.2225" y2="1.2573" layer="21"/>
<rectangle x1="-0.1905" y1="1.2319" x2="0.2921" y2="1.2573" layer="21"/>
<rectangle x1="1.8415" y1="1.2573" x2="1.9939" y2="1.2827" layer="21"/>
<rectangle x1="-0.0381" y1="1.2573" x2="0.1397" y2="1.2827" layer="21"/>
<rectangle x1="1.7653" y1="1.2573" x2="1.8415" y2="1.2827" layer="21"/>
<rectangle x1="1.9939" y1="1.2573" x2="2.0701" y2="1.2827" layer="21"/>
</package>
</packages>
</library>
</libraries>
<attributes>
</attributes>
<variantdefs>
</variantdefs>
<classes>
<class number="0" name="default" width="0" drill="0">
</class>
</classes>
<designrules name="SeeedStudio_2layer_DRU_no_angle_20140221">
<description language="de">&lt;b&gt;EAGLE Design Rules&lt;/b&gt;
&lt;p&gt;
Die Standard-Design-Rules sind so gewählt, dass sie für 
die meisten Anwendungen passen. Sollte ihre Platine 
besondere Anforderungen haben, treffen Sie die erforderlichen
Einstellungen hier und speichern die Design Rules unter 
einem neuen Namen ab.</description>
<description language="en">&lt;b&gt;EAGLE Design Rules&lt;/b&gt;
&lt;p&gt;
The default Design Rules have been set to cover
a wide range of applications. Your particular design
may have different requirements, so please make the
necessary adjustments and save your customized
design rules under a new name.</description>
<description language="zh">&lt;b&gt;Seeed Studio EAGLE Design Rules&lt;/b&gt;
</description>
<param name="layerSetup" value="(1*16)"/>
<param name="mtCopper" value="0.035mm 0.0175mm 0.035mm 0.035mm 0.035mm 0.035mm 0.035mm 0.035mm 0.035mm 0.035mm 0.035mm 0.035mm 0.035mm 0.035mm 0.0175mm 0.035mm"/>
<param name="mtIsolate" value="1.5mm 1.1mm 0.2mm 0.15mm 0.2mm 0.15mm 0.2mm 0.15mm 0.2mm 0.15mm 0.2mm 0.15mm 0.2mm 0.15mm 0.2mm"/>
<param name="mdWireWire" value="6mil"/>
<param name="mdWirePad" value="6mil"/>
<param name="mdWireVia" value="6mil"/>
<param name="mdPadPad" value="6mil"/>
<param name="mdPadVia" value="6mil"/>
<param name="mdViaVia" value="6mil"/>
<param name="mdSmdPad" value="0mil"/>
<param name="mdSmdVia" value="0mil"/>
<param name="mdSmdSmd" value="0mil"/>
<param name="mdViaViaSameLayer" value="8mil"/>
<param name="mnLayersViaInSmd" value="2"/>
<param name="mdCopperDimension" value="10mil"/>
<param name="mdDrill" value="10mil"/>
<param name="mdSmdStop" value="0mil"/>
<param name="msWidth" value="6mil"/>
<param name="msDrill" value="12mil"/>
<param name="msMicroVia" value="12mil"/>
<param name="msBlindViaRatio" value="0.5"/>
<param name="rvPadTop" value="0.25"/>
<param name="rvPadInner" value="0.25"/>
<param name="rvPadBottom" value="0.25"/>
<param name="rvViaOuter" value="0.25"/>
<param name="rvViaInner" value="0.25"/>
<param name="rvMicroViaOuter" value="0.25"/>
<param name="rvMicroViaInner" value="0.25"/>
<param name="rlMinPadTop" value="10mil"/>
<param name="rlMaxPadTop" value="20mil"/>
<param name="rlMinPadInner" value="10mil"/>
<param name="rlMaxPadInner" value="20mil"/>
<param name="rlMinPadBottom" value="10mil"/>
<param name="rlMaxPadBottom" value="20mil"/>
<param name="rlMinViaOuter" value="6mil"/>
<param name="rlMaxViaOuter" value="20mil"/>
<param name="rlMinViaInner" value="6mil"/>
<param name="rlMaxViaInner" value="20mil"/>
<param name="rlMinMicroViaOuter" value="4mil"/>
<param name="rlMaxMicroViaOuter" value="20mil"/>
<param name="rlMinMicroViaInner" value="4mil"/>
<param name="rlMaxMicroViaInner" value="20mil"/>
<param name="psTop" value="-1"/>
<param name="psBottom" value="-1"/>
<param name="psFirst" value="0"/>
<param name="psElongationLong" value="100"/>
<param name="psElongationOffset" value="100"/>
<param name="mvStopFrame" value="1"/>
<param name="mvCreamFrame" value="0"/>
<param name="mlMinStopFrame" value="2mil"/>
<param name="mlMaxStopFrame" value="2mil"/>
<param name="mlMinCreamFrame" value="0mil"/>
<param name="mlMaxCreamFrame" value="0mil"/>
<param name="mlViaStopLimit" value="100mil"/>
<param name="srRoundness" value="0"/>
<param name="srMinRoundness" value="0mil"/>
<param name="srMaxRoundness" value="0mil"/>
<param name="slThermalIsolate" value="10mil"/>
<param name="slThermalsForVias" value="0"/>
<param name="dpMaxLengthDifference" value="10mm"/>
<param name="dpGapFactor" value="2.5"/>
<param name="checkAngle" value="0"/>
<param name="checkFont" value="1"/>
<param name="checkRestrict" value="0"/>
<param name="checkStop" value="0"/>
<param name="checkValues" value="0"/>
<param name="checkNames" value="1"/>
<param name="checkWireStubs" value="1"/>
<param name="checkPolygonWidth" value="0"/>
<param name="useDiameter" value="13"/>
<param name="maxErrors" value="50"/>
</designrules>
<autorouter>
<pass name="Default">
<param name="RoutingGrid" value="50mil"/>
<param name="AutoGrid" value="1"/>
<param name="Efforts" value="0"/>
<param name="TopRouterVariant" value="1"/>
<param name="tpViaShape" value="round"/>
<param name="PrefDir.1" value="|"/>
<param name="PrefDir.2" value="0"/>
<param name="PrefDir.3" value="0"/>
<param name="PrefDir.4" value="0"/>
<param name="PrefDir.5" value="0"/>
<param name="PrefDir.6" value="0"/>
<param name="PrefDir.7" value="0"/>
<param name="PrefDir.8" value="0"/>
<param name="PrefDir.9" value="0"/>
<param name="PrefDir.10" value="0"/>
<param name="PrefDir.11" value="0"/>
<param name="PrefDir.12" value="0"/>
<param name="PrefDir.13" value="0"/>
<param name="PrefDir.14" value="0"/>
<param name="PrefDir.15" value="0"/>
<param name="PrefDir.16" value="-"/>
<param name="cfVia" value="8"/>
<param name="cfNonPref" value="5"/>
<param name="cfChangeDir" value="2"/>
<param name="cfOrthStep" value="2"/>
<param name="cfDiagStep" value="3"/>
<param name="cfExtdStep" value="0"/>
<param name="cfBonusStep" value="1"/>
<param name="cfMalusStep" value="1"/>
<param name="cfPadImpact" value="4"/>
<param name="cfSmdImpact" value="4"/>
<param name="cfBusImpact" value="0"/>
<param name="cfHugging" value="3"/>
<param name="cfAvoid" value="4"/>
<param name="cfPolygon" value="10"/>
<param name="cfBase.1" value="0"/>
<param name="cfBase.2" value="1"/>
<param name="cfBase.3" value="1"/>
<param name="cfBase.4" value="1"/>
<param name="cfBase.5" value="1"/>
<param name="cfBase.6" value="1"/>
<param name="cfBase.7" value="1"/>
<param name="cfBase.8" value="1"/>
<param name="cfBase.9" value="1"/>
<param name="cfBase.10" value="1"/>
<param name="cfBase.11" value="1"/>
<param name="cfBase.12" value="1"/>
<param name="cfBase.13" value="1"/>
<param name="cfBase.14" value="1"/>
<param name="cfBase.15" value="1"/>
<param name="cfBase.16" value="0"/>
<param name="mnVias" value="20"/>
<param name="mnSegments" value="9999"/>
<param name="mnExtdSteps" value="9999"/>
<param name="mnRipupLevel" value="10"/>
<param name="mnRipupSteps" value="100"/>
<param name="mnRipupTotal" value="100"/>
</pass>
<pass name="Follow-me" refer="Default" active="yes">
</pass>
<pass name="Busses" refer="Default" active="yes">
<param name="cfNonPref" value="4"/>
<param name="cfBusImpact" value="4"/>
<param name="cfHugging" value="0"/>
<param name="mnVias" value="0"/>
</pass>
<pass name="Route" refer="Default" active="yes">
</pass>
<pass name="Optimize1" refer="Default" active="yes">
<param name="cfVia" value="99"/>
<param name="cfExtdStep" value="10"/>
<param name="cfHugging" value="1"/>
<param name="mnExtdSteps" value="1"/>
<param name="mnRipupLevel" value="0"/>
</pass>
<pass name="Optimize2" refer="Optimize1" active="yes">
<param name="cfNonPref" value="0"/>
<param name="cfChangeDir" value="6"/>
<param name="cfExtdStep" value="0"/>
<param name="cfBonusStep" value="2"/>
<param name="cfMalusStep" value="2"/>
<param name="cfPadImpact" value="2"/>
<param name="cfSmdImpact" value="2"/>
<param name="cfHugging" value="0"/>
</pass>
<pass name="Optimize3" refer="Optimize2" active="yes">
<param name="cfChangeDir" value="8"/>
<param name="cfPadImpact" value="0"/>
<param name="cfSmdImpact" value="0"/>
</pass>
<pass name="Optimize4" refer="Optimize3" active="yes">
<param name="cfChangeDir" value="25"/>
</pass>
</autorouter>
<elements>
<element name="RJ45" library="con-amp" package="520426-4" value="TE Connectivity 215877-1" x="17.5248" y="7.2539" smashed="yes">
<attribute name="NAME" x="8.5497" y="4.1546" size="1.016" layer="25" font="vector" ratio="15" rot="R270"/>
<attribute name="VALUE" x="27.1768" y="2.4279" size="1.778" layer="27" rot="R90"/>
</element>
<element name="C1" library="rcl" package="A/3216-18W" value="4.7uF AVX TAJA475K016UNJ" x="20.5" y="20" smashed="yes" rot="R180">
<attribute name="NAME" x="25.4825" y="20.5075" size="1.016" layer="25" font="vector" ratio="15" rot="R180"/>
<attribute name="VALUE" x="22.45" y="22.325" size="1.27" layer="27" rot="R180"/>
</element>
<element name="+" library="testpad" package="P1-13" value="PTR1PAD1-13" x="3.292" y="26.321" smashed="yes">
<attribute name="NAME" x="6.595" y="25.6835" size="1.27" layer="25" font="vector" ratio="15"/>
<attribute name="TP_SIGNAL_NAME" value="" x="2.022" y="23.781" size="1" layer="37"/>
<attribute name="VALUE" x="3.292" y="26.321" size="0.0254" layer="27"/>
</element>
<element name="A" library="testpad" package="P1-13" value="PTR1PAD1-13" x="3.292" y="23.781" smashed="yes">
<attribute name="NAME" x="6.595" y="23.1435" size="1.27" layer="25" font="vector" ratio="15"/>
<attribute name="TP_SIGNAL_NAME" value="" x="2.022" y="21.241" size="1" layer="37"/>
<attribute name="VALUE" x="3.292" y="23.781" size="0.0254" layer="27"/>
</element>
<element name="B" library="testpad" package="P1-13" value="PTR1PAD1-13" x="3.292" y="21.241" smashed="yes">
<attribute name="NAME" x="6.595" y="20.6035" size="1.27" layer="25" font="vector" ratio="15"/>
<attribute name="TP_SIGNAL_NAME" value="" x="2.022" y="18.701" size="1" layer="37"/>
<attribute name="VALUE" x="3.292" y="21.241" size="0.0254" layer="27"/>
</element>
<element name="-" library="testpad" package="P1-13" value="PTR1PAD1-13" x="3.292" y="18.701" smashed="yes">
<attribute name="NAME" x="6.595" y="18.0635" size="1.27" layer="25" font="vector" ratio="15"/>
<attribute name="TP_SIGNAL_NAME" value="" x="2.022" y="16.161" size="1" layer="37"/>
<attribute name="VALUE" x="3.292" y="18.701" size="0.0254" layer="27"/>
</element>
<element name="U1" library="CNP-miscellaneous" package="ENCODER_EC12" value="ENCODER_EC12" x="17.6316" y="31.6992" smashed="yes">
<attribute name="NAME" x="12.1194" y="32.4634" size="0.8128" layer="25" font="vector" ratio="12"/>
<attribute name="VALUE" x="15.4716" y="35.6292" size="0.8128" layer="27"/>
</element>
<element name="R1" library="rcl" package="R0402" value="10k" x="16.0688" y="28.2768" smashed="yes" rot="R180">
<attribute name="NAME" x="15.7962" y="28.9432" size="0.8128" layer="25" font="vector" ratio="12"/>
<attribute name="VALUE" x="16.7038" y="30.1818" size="1.27" layer="27" rot="R180"/>
</element>
<element name="R2" library="rcl" package="R0402" value="10k" x="19.4312" y="26.3464" smashed="yes">
<attribute name="NAME" x="18.8112" y="27.0514" size="0.8128" layer="25" font="vector" ratio="12"/>
<attribute name="VALUE" x="18.7962" y="24.4414" size="1.27" layer="27"/>
</element>
<element name="C2" library="rcl" package="C0402" value="100nF" x="14.0688" y="26.0304" smashed="yes" rot="R180">
<attribute name="NAME" x="13.2962" y="24.5471" size="0.8128" layer="25" font="vector" ratio="12"/>
<attribute name="VALUE" x="14.7038" y="27.9354" size="1.27" layer="27" rot="R180"/>
</element>
<element name="C3" library="rcl" package="C0402" value="100nF" x="21.4312" y="24.5928" smashed="yes">
<attribute name="NAME" x="20.8812" y="23.1003" size="0.8128" layer="25" font="vector" ratio="12"/>
<attribute name="VALUE" x="20.7962" y="22.6878" size="1.27" layer="27"/>
</element>
<element name="U$3" library="CNP-miscellaneous" package="LOGO_7" value="" x="27.5" y="28" smashed="yes"/>
</elements>
<signals>
<signal name="N$3">
</signal>
<signal name="GND2">
</signal>
<signal name="GND">
<polygon width="0.1524" layer="16">
<vertex x="0" y="45"/>
<vertex x="35" y="45"/>
<vertex x="35" y="0"/>
<vertex x="0" y="0.052"/>
</polygon>
<polygon width="0.1524" layer="1">
<vertex x="0" y="45"/>
<vertex x="35" y="45"/>
<vertex x="35" y="0"/>
<vertex x="0" y="0"/>
</polygon>
<contactref element="RJ45" pad="5"/>
<contactref element="C1" pad="-"/>
<contactref element="-" pad="TP"/>
<via x="2.5" y="2.5" extent="1-16" drill="0.35"/>
<via x="2.5" y="42.5" extent="1-16" drill="0.35"/>
<via x="32.5" y="42.5" extent="1-16" drill="0.35"/>
<via x="14.1625" y="21.16" extent="1-16" drill="0.35"/>
<via x="23.45" y="21.715" extent="1-16" drill="0.35"/>
<via x="12.6625" y="21.16" extent="1-16" drill="0.35"/>
<via x="21.95" y="21.715" extent="1-16" drill="0.35"/>
<contactref element="U1" pad="C"/>
<contactref element="C3" pad="2"/>
<contactref element="C2" pad="2"/>
<via x="12.1625" y="26.16" extent="1-16" drill="0.35"/>
<via x="23.6625" y="24.66" extent="1-16" drill="0.35"/>
<via x="17.625" y="39.1875" extent="1-16" drill="1"/>
</signal>
<signal name="+5V">
<contactref element="RJ45" pad="4"/>
<contactref element="C1" pad="+"/>
<wire x1="16.8898" y1="16.1439" x2="16.8898" y2="19.6402" width="0.6096" layer="1"/>
<wire x1="16.8898" y1="19.6402" x2="17.35" y2="20.1004" width="0.6096" layer="1"/>
<contactref element="+" pad="TP"/>
<wire x1="16.5" y1="21.9456" x2="18.6944" y2="21.9456" width="0.6096" layer="1"/>
<wire x1="18.6944" y1="21.9456" x2="19.1008" y2="21.9456" width="0.6096" layer="1"/>
<wire x1="19.1008" y1="21.9456" x2="19.1008" y2="21.5392" width="0.6096" layer="1"/>
<wire x1="19.1008" y1="21.5392" x2="19.1008" y2="20.0758" width="0.6096" layer="1"/>
<wire x1="19.1008" y1="20.0758" x2="19.025" y2="20" width="0.6096" layer="1"/>
<wire x1="18.6944" y1="21.9456" x2="19.1008" y2="21.5392" width="0.6096" layer="1"/>
<wire x1="16.5" y1="21.9456" x2="10.7696" y2="21.9456" width="0.6096" layer="1"/>
<wire x1="10.7696" y1="21.9456" x2="10.16" y2="22.5552" width="0.6096" layer="1"/>
<wire x1="10.16" y1="22.5552" x2="10.16" y2="25.6032" width="0.6096" layer="1"/>
<wire x1="10.16" y1="25.6032" x2="9.4488" y2="26.3144" width="0.6096" layer="1"/>
<wire x1="9.4488" y1="26.3144" x2="3.2986" y2="26.3144" width="0.6096" layer="1"/>
<wire x1="3.2986" y1="26.3144" x2="3.292" y2="26.321" width="0.6096" layer="1"/>
<contactref element="R1" pad="1"/>
<contactref element="R2" pad="1"/>
<wire x1="16.7188" y1="28.2768" x2="16.7188" y2="22.1644" width="0.3048" layer="1"/>
<wire x1="16.7188" y1="22.1644" x2="16.5" y2="21.9456" width="0.3048" layer="1"/>
<wire x1="18.7812" y1="26.3464" x2="18.7812" y2="22.0324" width="0.3048" layer="1"/>
<wire x1="18.7812" y1="22.0324" x2="18.6944" y2="21.9456" width="0.3048" layer="1"/>
<wire x1="17.35" y1="20.1004" x2="19.0762" y2="20.1004" width="0.6096" layer="1"/>
<wire x1="19.0762" y1="20.1004" x2="19.1008" y2="20.0758" width="0.6096" layer="1"/>
</signal>
<signal name="DIO">
<contactref element="RJ45" pad="2"/>
<contactref element="B" pad="TP"/>
<wire x1="10.5664" y1="17.3365" x2="10.5664" y2="20.4296" width="0.3048" layer="16"/>
<wire x1="14.3498" y1="16.1439" x2="11.759" y2="16.1439" width="0.3048" layer="16"/>
<wire x1="11.759" y1="16.1439" x2="10.5664" y2="17.3365" width="0.3048" layer="16"/>
<wire x1="19.5" y1="18.0848" x2="16.2907" y2="18.0848" width="0.3048" layer="16"/>
<wire x1="16.2907" y1="18.0848" x2="14.3498" y2="16.1439" width="0.3048" layer="16"/>
<contactref element="U1" pad="B"/>
<contactref element="R2" pad="2"/>
<contactref element="C3" pad="1"/>
<wire x1="20.1316" y1="31.6992" x2="20.1316" y2="25.5" width="0.3048" layer="16"/>
<wire x1="20.1316" y1="25.5" x2="20.1316" y2="18.7164" width="0.3048" layer="16"/>
<wire x1="20.1316" y1="18.7164" x2="19.5" y2="18.0848" width="0.3048" layer="16"/>
<wire x1="20.0812" y1="26.3464" x2="20.7138" y2="25.7138" width="0.3048" layer="1"/>
<wire x1="20.7138" y1="25.7138" x2="20.7812" y2="25.6464" width="0.3048" layer="1"/>
<wire x1="20.7812" y1="25.6464" x2="20.7812" y2="24.5928" width="0.3048" layer="1"/>
<wire x1="20.7138" y1="25.7138" x2="20.5" y2="25.5" width="0.3048" layer="1"/>
<wire x1="20.5" y1="25.5" x2="20.1316" y2="25.5" width="0.3048" layer="1"/>
<via x="20.1316" y="25.5" extent="1-16" drill="0.35"/>
<via x="20.125" y="39.1875" extent="1-16" drill="1"/>
<wire x1="20.1316" y1="31.6992" x2="20.1316" y2="39.1809" width="0.254" layer="1"/>
<wire x1="20.1316" y1="39.1809" x2="20.125" y2="39.1875" width="0.254" layer="1"/>
<wire x1="3.292" y1="21.241" x2="9.755" y2="21.241" width="0.3048" layer="16"/>
<wire x1="9.755" y1="21.241" x2="10.5664" y2="20.4296" width="0.3048" layer="16"/>
</signal>
<signal name="DI">
<contactref element="RJ45" pad="1"/>
<contactref element="A" pad="TP"/>
<wire x1="14.3498" y1="19.2266" x2="15.1316" y2="20.0084" width="0.3048" layer="16"/>
<wire x1="14.3498" y1="19.2266" x2="12.521" y2="19.2266" width="0.3048" layer="16"/>
<wire x1="12.521" y1="19.2266" x2="11.7856" y2="18.4912" width="0.3048" layer="16"/>
<via x="11.7856" y="18.4912" extent="1-16" drill="0.35"/>
<wire x1="11.7856" y1="18.4912" x2="9.144" y2="18.4912" width="0.3048" layer="1"/>
<wire x1="9.144" y1="18.4912" x2="8.636" y2="18.9992" width="0.3048" layer="1"/>
<wire x1="8.636" y1="18.9992" x2="8.636" y2="23.1648" width="0.3048" layer="1"/>
<wire x1="8.636" y1="23.1648" x2="8.0264" y2="23.7744" width="0.3048" layer="1"/>
<wire x1="8.0264" y1="23.7744" x2="3.2986" y2="23.7744" width="0.3048" layer="1"/>
<wire x1="3.2986" y1="23.7744" x2="3.292" y2="23.781" width="0.3048" layer="1"/>
<wire x1="13.0798" y1="13.6039" x2="11.7856" y2="14.8981" width="0.3048" layer="1"/>
<wire x1="11.7856" y1="14.8981" x2="11.7856" y2="18.4912" width="0.3048" layer="1"/>
<contactref element="U1" pad="A"/>
<contactref element="R1" pad="2"/>
<contactref element="C2" pad="1"/>
<wire x1="15.1316" y1="31.6992" x2="15.1316" y2="27.5" width="0.3048" layer="16"/>
<wire x1="15.1316" y1="27.5" x2="15.1316" y2="20.0084" width="0.3048" layer="16"/>
<wire x1="14.7188" y1="26.0304" x2="14.7188" y2="27.5768" width="0.3048" layer="1"/>
<wire x1="15.4188" y1="28.2768" x2="14.7188" y2="27.5768" width="0.3048" layer="1"/>
<wire x1="14.7188" y1="27.5768" x2="14.7956" y2="27.5" width="0.3048" layer="1"/>
<wire x1="14.7956" y1="27.5" x2="15.1316" y2="27.5" width="0.3048" layer="1"/>
<via x="15.1316" y="27.5" extent="1-16" drill="0.35"/>
<via x="15.125" y="39.1875" extent="1-16" drill="1"/>
<wire x1="15.1316" y1="31.6992" x2="15.1316" y2="39.1809" width="0.254" layer="1"/>
<wire x1="15.1316" y1="39.1809" x2="15.125" y2="39.1875" width="0.254" layer="1"/>
</signal>
</signals>
<mfgpreviewcolors>
<mfgpreviewcolor name="soldermaskcolor" color="0xC8008000"/>
<mfgpreviewcolor name="silkscreencolor" color="0xFFFEFEFE"/>
<mfgpreviewcolor name="backgroundcolor" color="0xFF282828"/>
<mfgpreviewcolor name="coppercolor" color="0xFFFFBF00"/>
<mfgpreviewcolor name="substratecolor" color="0xFF786E46"/>
</mfgpreviewcolors>
</board>
</drawing>
<compatibility>
<note version="6.3" minversion="6.2.2" severity="warning">
Since Version 6.2.2 text objects can contain more than one line,
which will not be processed correctly with this version.
</note>
</compatibility>
</eagle>
